EESchema Schematic File Version 4
EELAYER 30 0
EELAYER END
$Descr A4 11693 8268
encoding utf-8
Sheet 1 1
Title "Ultimate red head torch"
Date "2021-06-28"
Rev "V1"
Comp ""
Comment1 ""
Comment2 ""
Comment3 ""
Comment4 ""
$EndDescr
$Comp
L Timer:LM555xM U1
U 1 1 60B26C4D
P 4300 3200
F 0 "U1" H 4300 3781 50  0001 C CNN
F 1 "LMC555" H 4200 3600 50  0000 R CNN
F 2 "Package_DIP:DIP-8_W7.62mm" H 5150 2800 50  0001 C CNN
F 3 "http://www.ti.com/lit/ds/symlink/lm555.pdf" H 5150 2800 50  0001 C CNN
	1    4300 3200
	1    0    0    -1  
$EndComp
$Comp
L Device:C C1
U 1 1 60B28C78
P 3600 3350
F 0 "C1" H 3486 3304 50  0000 R CNN
F 1 "10 nF" H 3486 3395 50  0000 R CNN
F 2 "Capacitor_THT:C_Disc_D4.3mm_W1.9mm_P5.00mm" H 3638 3200 50  0001 C CNN
F 3 "~" H 3600 3350 50  0001 C CNN
	1    3600 3350
	1    0    0    1   
$EndComp
$Comp
L power:Earth #PWR06
U 1 1 60B2D67A
P 4300 3700
F 0 "#PWR06" H 4300 3450 50  0001 C CNN
F 1 "Earth" H 4300 3550 50  0001 C CNN
F 2 "" H 4300 3700 50  0001 C CNN
F 3 "~" H 4300 3700 50  0001 C CNN
	1    4300 3700
	1    0    0    -1  
$EndComp
$Comp
L power:Earth #PWR03
U 1 1 60B2ED2E
P 3600 3600
F 0 "#PWR03" H 3600 3350 50  0001 C CNN
F 1 "Earth" H 3600 3450 50  0001 C CNN
F 2 "" H 3600 3600 50  0001 C CNN
F 3 "~" H 3600 3600 50  0001 C CNN
	1    3600 3600
	1    0    0    -1  
$EndComp
Wire Wire Line
	4300 3600 4300 3700
$Comp
L power:VCC #PWR08
U 1 1 60B3CDBF
P 6000 3050
F 0 "#PWR08" H 6000 2900 50  0001 C CNN
F 1 "VCC" H 6015 3223 50  0000 C CNN
F 2 "" H 6000 3050 50  0001 C CNN
F 3 "" H 6000 3050 50  0001 C CNN
	1    6000 3050
	1    0    0    -1  
$EndComp
Wire Wire Line
	6000 3050 6000 3200
Wire Wire Line
	6000 3200 5950 3200
$Comp
L Device:R_US R1
U 1 1 60B430EB
P 5600 3700
F 0 "R1" H 5668 3700 50  0000 L CNN
F 1 "R_US" H 5668 3655 50  0001 L CNN
F 2 "Resistor_THT:R_Axial_DIN0207_L6.3mm_D2.5mm_P10.16mm_Horizontal" V 5640 3690 50  0001 C CNN
F 3 "~" H 5600 3700 50  0001 C CNN
	1    5600 3700
	1    0    0    1   
$EndComp
$Comp
L Device:D D1
U 1 1 60B44385
P 5200 3350
F 0 "D1" V 5200 3200 50  0000 L CNN
F 1 "D" H 5200 3476 50  0001 C CNN
F 2 "Diode_THT:D_DO-35_SOD27_P7.62mm_Horizontal" H 5200 3350 50  0001 C CNN
F 3 "~" H 5200 3350 50  0001 C CNN
	1    5200 3350
	0    -1   -1   0   
$EndComp
$Comp
L Device:R_US R2
U 1 1 60B3EAE0
P 5800 3200
F 0 "R2" V 5687 3200 50  0000 C CNN
F 1 "R_US" H 5868 3155 50  0001 L CNN
F 2 "Resistor_THT:R_Axial_DIN0207_L6.3mm_D2.5mm_P10.16mm_Horizontal" V 5840 3190 50  0001 C CNN
F 3 "~" H 5800 3200 50  0001 C CNN
	1    5800 3200
	0    1    1    0   
$EndComp
$Comp
L Device:C C2
U 1 1 60B6FF17
P 5400 4100
F 0 "C2" H 5515 4100 50  0000 L CNN
F 1 "C" H 5515 4055 50  0001 L CNN
F 2 "Capacitor_THT:C_Disc_D4.3mm_W1.9mm_P5.00mm" H 5438 3950 50  0001 C CNN
F 3 "~" H 5400 4100 50  0001 C CNN
	1    5400 4100
	1    0    0    1   
$EndComp
$Comp
L power:Earth #PWR07
U 1 1 60B8FBCF
P 5400 4350
F 0 "#PWR07" H 5400 4100 50  0001 C CNN
F 1 "Earth" H 5400 4200 50  0001 C CNN
F 2 "" H 5400 4350 50  0001 C CNN
F 3 "~" H 5400 4350 50  0001 C CNN
	1    5400 4350
	-1   0    0    -1  
$EndComp
Wire Wire Line
	5600 3550 5600 3500
$Comp
L Device:D D2
U 1 1 60B44EBF
P 5600 3350
F 0 "D2" V 5600 3300 50  0000 R CNN
F 1 "D" H 5600 3476 50  0001 C CNN
F 2 "Diode_THT:D_DO-35_SOD27_P7.62mm_Horizontal" H 5600 3350 50  0001 C CNN
F 3 "~" H 5600 3350 50  0001 C CNN
	1    5600 3350
	0    -1   1    0   
$EndComp
Wire Wire Line
	5600 3200 5650 3200
Wire Wire Line
	4800 3200 5200 3200
$Comp
L Connector:Conn_01x03_Male J2
U 1 1 60B55612
P 5400 3650
F 0 "J2" V 5350 3650 50  0000 C CNN
F 1 "Conn_01x03_Male" H 5508 3840 50  0001 C CNN
F 2 "Connector_PinHeader_2.54mm:PinHeader_1x03_P2.54mm_Vertical" H 5400 3650 50  0001 C CNN
F 3 "~" H 5400 3650 50  0001 C CNN
	1    5400 3650
	0    -1   1    0   
$EndComp
Wire Wire Line
	5500 3850 5600 3850
Wire Wire Line
	5200 3500 5200 3850
Wire Wire Line
	5200 3850 5300 3850
Wire Wire Line
	5200 3200 5600 3200
Connection ~ 5200 3200
Connection ~ 5600 3200
Wire Wire Line
	3800 3000 3200 3000
Wire Wire Line
	3200 3000 3200 3950
Wire Wire Line
	3200 3950 4800 3950
Wire Wire Line
	5400 3850 5400 3950
Connection ~ 5400 3950
Wire Wire Line
	4800 3400 4800 3950
Connection ~ 4800 3950
Wire Wire Line
	4800 3950 5400 3950
Wire Wire Line
	5400 4250 5400 4350
Wire Wire Line
	3600 3200 3800 3200
Wire Wire Line
	3600 3500 3600 3600
$Comp
L power:VCC #PWR04
U 1 1 60BE8119
P 3800 3400
F 0 "#PWR04" H 3800 3250 50  0001 C CNN
F 1 "VCC" H 3800 3550 50  0000 C CNN
F 2 "" H 3800 3400 50  0001 C CNN
F 3 "" H 3800 3400 50  0001 C CNN
	1    3800 3400
	1    0    0    -1  
$EndComp
Text GLabel 4900 3000 2    50   Input ~ 0
OUT
Wire Wire Line
	4800 3000 4900 3000
$Comp
L power:VCC #PWR05
U 1 1 60BF41F2
P 4300 2750
F 0 "#PWR05" H 4300 2600 50  0001 C CNN
F 1 "VCC" H 4315 2923 50  0000 C CNN
F 2 "" H 4300 2750 50  0001 C CNN
F 3 "" H 4300 2750 50  0001 C CNN
	1    4300 2750
	1    0    0    -1  
$EndComp
Wire Wire Line
	4300 2750 4300 2800
$Comp
L power:VCC #PWR01
U 1 1 60BFD269
P 3500 2450
F 0 "#PWR01" H 3500 2300 50  0001 C CNN
F 1 "VCC" H 3515 2623 50  0000 C CNN
F 2 "" H 3500 2450 50  0001 C CNN
F 3 "" H 3500 2450 50  0001 C CNN
	1    3500 2450
	1    0    0    -1  
$EndComp
$Comp
L power:Earth #PWR02
U 1 1 60BFD96D
P 3500 2750
F 0 "#PWR02" H 3500 2500 50  0001 C CNN
F 1 "Earth" H 3500 2600 50  0001 C CNN
F 2 "" H 3500 2750 50  0001 C CNN
F 3 "~" H 3500 2750 50  0001 C CNN
	1    3500 2750
	1    0    0    -1  
$EndComp
$Comp
L Device:R_US RB1
U 1 1 60C00524
P 6600 3450
F 0 "RB1" V 6487 3450 50  0000 C CNN
F 1 "R_US" H 6668 3405 50  0001 L CNN
F 2 "Resistor_THT:R_Axial_DIN0207_L6.3mm_D2.5mm_P10.16mm_Horizontal" V 6640 3440 50  0001 C CNN
F 3 "~" H 6600 3450 50  0001 C CNN
	1    6600 3450
	0    1    1    0   
$EndComp
$Comp
L Device:R_US RB2
U 1 1 60C01E40
P 6600 4150
F 0 "RB2" V 6487 4150 50  0000 C CNN
F 1 "R_US" H 6668 4105 50  0001 L CNN
F 2 "Resistor_THT:R_Axial_DIN0207_L6.3mm_D2.5mm_P10.16mm_Horizontal" V 6640 4140 50  0001 C CNN
F 3 "~" H 6600 4150 50  0001 C CNN
	1    6600 4150
	0    1    1    0   
$EndComp
Text GLabel 6300 4150 0    50   Input ~ 0
OUT
$Comp
L Transistor_BJT:2N3904 Q1
U 1 1 60C0EC03
P 7050 3450
F 0 "Q1" H 7240 3496 50  0000 L CNN
F 1 "2N3904" H 7240 3405 50  0000 L CNN
F 2 "Package_TO_SOT_THT:TO-92_Inline" H 7250 3375 50  0001 L CIN
F 3 "https://www.onsemi.com/pub/Collateral/2N3903-D.PDF" H 7050 3450 50  0001 L CNN
	1    7050 3450
	1    0    0    -1  
$EndComp
$Comp
L power:Earth #PWR09
U 1 1 60C11258
P 7150 3700
F 0 "#PWR09" H 7150 3450 50  0001 C CNN
F 1 "Earth" H 7150 3550 50  0001 C CNN
F 2 "" H 7150 3700 50  0001 C CNN
F 3 "~" H 7150 3700 50  0001 C CNN
	1    7150 3700
	1    0    0    -1  
$EndComp
$Comp
L Transistor_BJT:2N3904 Q2
U 1 1 60C126D1
P 7050 4150
F 0 "Q2" H 7240 4196 50  0000 L CNN
F 1 "2N3904" H 7240 4105 50  0000 L CNN
F 2 "Package_TO_SOT_THT:TO-92_Inline" H 7250 4075 50  0001 L CIN
F 3 "https://www.onsemi.com/pub/Collateral/2N3903-D.PDF" H 7050 4150 50  0001 L CNN
	1    7050 4150
	1    0    0    -1  
$EndComp
$Comp
L power:Earth #PWR010
U 1 1 60C1303A
P 7150 4400
F 0 "#PWR010" H 7150 4150 50  0001 C CNN
F 1 "Earth" H 7150 4250 50  0001 C CNN
F 2 "" H 7150 4400 50  0001 C CNN
F 3 "~" H 7150 4400 50  0001 C CNN
	1    7150 4400
	1    0    0    -1  
$EndComp
$Comp
L power:VCC #PWR011
U 1 1 60C3A00A
P 7900 2400
F 0 "#PWR011" H 7900 2250 50  0001 C CNN
F 1 "VCC" H 7915 2573 50  0000 C CNN
F 2 "" H 7900 2400 50  0001 C CNN
F 3 "" H 7900 2400 50  0001 C CNN
	1    7900 2400
	1    0    0    -1  
$EndComp
Wire Wire Line
	6750 4150 6850 4150
Wire Wire Line
	6300 4150 6450 4150
Wire Wire Line
	6450 4150 6450 3450
Connection ~ 6450 4150
Wire Wire Line
	6750 3450 6850 3450
Wire Wire Line
	7150 4350 7150 4400
Wire Wire Line
	7150 3650 7150 3700
Wire Wire Line
	7900 2400 7900 2550
Wire Wire Line
	7150 3950 7900 3950
$Comp
L Device:R_US RL1
U 1 1 60B675E8
P 7600 3100
F 0 "RL1" H 7668 3100 50  0000 L CNN
F 1 "R_US" H 7668 3055 50  0001 L CNN
F 2 "Resistor_THT:R_Axial_DIN0207_L6.3mm_D2.5mm_P10.16mm_Horizontal" V 7640 3090 50  0001 C CNN
F 3 "~" H 7600 3100 50  0001 C CNN
	1    7600 3100
	1    0    0    -1  
$EndComp
$Comp
L Device:R_US RL2
U 1 1 60B67EC7
P 7900 3800
F 0 "RL2" H 7968 3800 50  0000 L CNN
F 1 "R_US" H 7968 3755 50  0001 L CNN
F 2 "Resistor_THT:R_Axial_DIN0207_L6.3mm_D2.5mm_P10.16mm_Horizontal" V 7940 3790 50  0001 C CNN
F 3 "~" H 7900 3800 50  0001 C CNN
	1    7900 3800
	1    0    0    -1  
$EndComp
Wire Wire Line
	7900 2750 7900 3650
Wire Wire Line
	7150 3250 7600 3250
Wire Wire Line
	7600 2950 7600 2650
Wire Wire Line
	7600 2650 7900 2650
$Comp
L Connector:Conn_01x02_Male J1
U 1 1 60BF97AA
P 3700 2650
F 0 "J1" H 3650 2600 50  0000 C CNN
F 1 "Conn_01x02_Male" H 3808 2740 50  0001 C CNN
F 2 "Connector_PinHeader_2.54mm:PinHeader_1x02_P2.54mm_Vertical" H 3700 2650 50  0001 C CNN
F 3 "~" H 3700 2650 50  0001 C CNN
	1    3700 2650
	-1   0    0    1   
$EndComp
Wire Wire Line
	3500 2450 3500 2550
Wire Wire Line
	3500 2650 3500 2750
$Comp
L Connector:Conn_01x03_Male J3
U 1 1 60DA4554
P 8100 2650
F 0 "J3" H 8050 2650 50  0000 R CNN
F 1 "Conn_01x03_Male" H 8208 2840 50  0001 C CNN
F 2 "Connector_PinHeader_2.54mm:PinHeader_1x03_P2.54mm_Vertical" H 8100 2650 50  0001 C CNN
F 3 "~" H 8100 2650 50  0001 C CNN
	1    8100 2650
	-1   0    0    -1  
$EndComp
$EndSCHEMATC
