(kicad_pcb (version 20171130) (host pcbnew 5.1.10)

  (general
    (thickness 1.6)
    (drawings 22)
    (tracks 70)
    (zones 0)
    (modules 16)
    (nets 16)
  )

  (page A4)
  (layers
    (0 F.Cu signal)
    (31 B.Cu power)
    (33 F.Adhes user hide)
    (35 F.Paste user hide)
    (37 F.SilkS user)
    (38 B.Mask user)
    (39 F.Mask user)
    (40 Dwgs.User user hide)
    (41 Cmts.User user hide)
    (42 Eco1.User user hide)
    (43 Eco2.User user hide)
    (44 Edge.Cuts user)
    (45 Margin user)
    (46 B.CrtYd user hide)
    (47 F.CrtYd user hide)
    (49 F.Fab user hide)
  )

  (setup
    (last_trace_width 0.25)
    (user_trace_width 0.3)
    (trace_clearance 0.2)
    (zone_clearance 0.508)
    (zone_45_only no)
    (trace_min 0.2)
    (via_size 0.8)
    (via_drill 0.4)
    (via_min_size 0.4)
    (via_min_drill 0.3)
    (uvia_size 0.3)
    (uvia_drill 0.1)
    (uvias_allowed no)
    (uvia_min_size 0.2)
    (uvia_min_drill 0.1)
    (edge_width 0.05)
    (segment_width 0.2)
    (pcb_text_width 0.3)
    (pcb_text_size 1.5 1.5)
    (mod_edge_width 0.12)
    (mod_text_size 1 1)
    (mod_text_width 0.15)
    (pad_size 1.524 1.524)
    (pad_drill 0.762)
    (pad_to_mask_clearance 0)
    (aux_axis_origin 0 0)
    (visible_elements FFFFFF7F)
    (pcbplotparams
      (layerselection 0x030e0_ffffffff)
      (usegerberextensions false)
      (usegerberattributes true)
      (usegerberadvancedattributes true)
      (creategerberjobfile true)
      (excludeedgelayer true)
      (linewidth 0.100000)
      (plotframeref false)
      (viasonmask false)
      (mode 1)
      (useauxorigin false)
      (hpglpennumber 1)
      (hpglpenspeed 20)
      (hpglpendiameter 15.000000)
      (psnegative false)
      (psa4output false)
      (plotreference true)
      (plotvalue true)
      (plotinvisibletext false)
      (padsonsilk false)
      (subtractmaskfromsilk false)
      (outputformat 1)
      (mirror false)
      (drillshape 0)
      (scaleselection 1)
      (outputdirectory "/home/monje/ENELLO/GIT_MANAGED/ultimateredheadtorch/pcb/gerber-2021-07/"))
  )

  (net 0 "")
  (net 1 "Net-(C1-Pad2)")
  (net 2 Earth)
  (net 3 "Net-(C2-Pad2)")
  (net 4 "Net-(D1-Pad1)")
  (net 5 "Net-(D1-Pad2)")
  (net 6 "Net-(D2-Pad2)")
  (net 7 VCC)
  (net 8 "Net-(J2-Pad3)")
  (net 9 "Net-(J3-Pad2)")
  (net 10 "Net-(Q1-Pad2)")
  (net 11 "Net-(Q2-Pad2)")
  (net 12 OUT)
  (net 13 "Net-(Q1-Pad3)")
  (net 14 "Net-(Q2-Pad3)")
  (net 15 "Net-(J3-Pad3)")

  (net_class Default "This is the default net class."
    (clearance 0.2)
    (trace_width 0.25)
    (via_dia 0.8)
    (via_drill 0.4)
    (uvia_dia 0.3)
    (uvia_drill 0.1)
    (add_net Earth)
    (add_net "Net-(C1-Pad2)")
    (add_net "Net-(C2-Pad2)")
    (add_net "Net-(D1-Pad1)")
    (add_net "Net-(D1-Pad2)")
    (add_net "Net-(D2-Pad2)")
    (add_net "Net-(J2-Pad3)")
    (add_net "Net-(J3-Pad2)")
    (add_net "Net-(J3-Pad3)")
    (add_net "Net-(Q1-Pad2)")
    (add_net "Net-(Q1-Pad3)")
    (add_net "Net-(Q2-Pad2)")
    (add_net "Net-(Q2-Pad3)")
    (add_net OUT)
    (add_net VCC)
  )

  (module Connector_PinHeader_2.54mm:PinHeader_1x03_P2.54mm_Vertical (layer F.Cu) (tedit 59FED5CC) (tstamp 60B6661D)
    (at 164.338 74.168 180)
    (descr "Through hole straight pin header, 1x03, 2.54mm pitch, single row")
    (tags "Through hole pin header THT 1x03 2.54mm single row")
    (path /60B55612)
    (fp_text reference J2 (at -1.27 -2.032) (layer F.SilkS)
      (effects (font (size 1 1) (thickness 0.15)))
    )
    (fp_text value Conn_01x03_Male (at 0 7.41) (layer F.Fab)
      (effects (font (size 1 1) (thickness 0.15)))
    )
    (fp_line (start 1.8 -1.8) (end -1.8 -1.8) (layer F.CrtYd) (width 0.05))
    (fp_line (start 1.8 6.85) (end 1.8 -1.8) (layer F.CrtYd) (width 0.05))
    (fp_line (start -1.8 6.85) (end 1.8 6.85) (layer F.CrtYd) (width 0.05))
    (fp_line (start -1.8 -1.8) (end -1.8 6.85) (layer F.CrtYd) (width 0.05))
    (fp_line (start -1.33 -1.33) (end 0 -1.33) (layer F.SilkS) (width 0.12))
    (fp_line (start -1.33 0) (end -1.33 -1.33) (layer F.SilkS) (width 0.12))
    (fp_line (start -1.33 1.27) (end 1.33 1.27) (layer F.SilkS) (width 0.12))
    (fp_line (start 1.33 1.27) (end 1.33 6.41) (layer F.SilkS) (width 0.12))
    (fp_line (start -1.33 1.27) (end -1.33 6.41) (layer F.SilkS) (width 0.12))
    (fp_line (start -1.33 6.41) (end 1.33 6.41) (layer F.SilkS) (width 0.12))
    (fp_line (start -1.27 -0.635) (end -0.635 -1.27) (layer F.Fab) (width 0.1))
    (fp_line (start -1.27 6.35) (end -1.27 -0.635) (layer F.Fab) (width 0.1))
    (fp_line (start 1.27 6.35) (end -1.27 6.35) (layer F.Fab) (width 0.1))
    (fp_line (start 1.27 -1.27) (end 1.27 6.35) (layer F.Fab) (width 0.1))
    (fp_line (start -0.635 -1.27) (end 1.27 -1.27) (layer F.Fab) (width 0.1))
    (fp_text user %R (at 0 2.54 90) (layer F.Fab)
      (effects (font (size 1 1) (thickness 0.15)))
    )
    (pad 3 thru_hole oval (at 0 5.08 180) (size 1.7 1.7) (drill 1) (layers *.Cu *.Mask)
      (net 8 "Net-(J2-Pad3)"))
    (pad 2 thru_hole oval (at 0 2.54 180) (size 1.7 1.7) (drill 1) (layers *.Cu *.Mask)
      (net 3 "Net-(C2-Pad2)"))
    (pad 1 thru_hole rect (at 0 0 180) (size 1.7 1.7) (drill 1) (layers *.Cu *.Mask)
      (net 4 "Net-(D1-Pad1)"))
    (model ${KISYS3DMOD}/Connector_PinHeader_2.54mm.3dshapes/PinHeader_1x03_P2.54mm_Vertical.wrl
      (at (xyz 0 0 0))
      (scale (xyz 1 1 1))
      (rotate (xyz 0 0 0))
    )
  )

  (module Connector_PinHeader_2.54mm:PinHeader_1x02_P2.54mm_Vertical (layer F.Cu) (tedit 59FED5CC) (tstamp 60B66606)
    (at 167.386 65.278 270)
    (descr "Through hole straight pin header, 1x02, 2.54mm pitch, single row")
    (tags "Through hole pin header THT 1x02 2.54mm single row")
    (path /60BF97AA)
    (fp_text reference J1 (at 0.508 4.572 90) (layer F.SilkS)
      (effects (font (size 1 1) (thickness 0.15)))
    )
    (fp_text value Conn_01x02_Male (at 0 4.87 90) (layer F.Fab)
      (effects (font (size 1 1) (thickness 0.15)))
    )
    (fp_line (start 1.8 -1.8) (end -1.8 -1.8) (layer F.CrtYd) (width 0.05))
    (fp_line (start 1.8 4.35) (end 1.8 -1.8) (layer F.CrtYd) (width 0.05))
    (fp_line (start -1.8 4.35) (end 1.8 4.35) (layer F.CrtYd) (width 0.05))
    (fp_line (start -1.8 -1.8) (end -1.8 4.35) (layer F.CrtYd) (width 0.05))
    (fp_line (start -1.33 -1.33) (end 0 -1.33) (layer F.SilkS) (width 0.12))
    (fp_line (start -1.33 0) (end -1.33 -1.33) (layer F.SilkS) (width 0.12))
    (fp_line (start -1.33 1.27) (end 1.33 1.27) (layer F.SilkS) (width 0.12))
    (fp_line (start 1.33 1.27) (end 1.33 3.87) (layer F.SilkS) (width 0.12))
    (fp_line (start -1.33 1.27) (end -1.33 3.87) (layer F.SilkS) (width 0.12))
    (fp_line (start -1.33 3.87) (end 1.33 3.87) (layer F.SilkS) (width 0.12))
    (fp_line (start -1.27 -0.635) (end -0.635 -1.27) (layer F.Fab) (width 0.1))
    (fp_line (start -1.27 3.81) (end -1.27 -0.635) (layer F.Fab) (width 0.1))
    (fp_line (start 1.27 3.81) (end -1.27 3.81) (layer F.Fab) (width 0.1))
    (fp_line (start 1.27 -1.27) (end 1.27 3.81) (layer F.Fab) (width 0.1))
    (fp_line (start -0.635 -1.27) (end 1.27 -1.27) (layer F.Fab) (width 0.1))
    (fp_text user %R (at 0 1.27) (layer F.Fab)
      (effects (font (size 1 1) (thickness 0.15)))
    )
    (pad 2 thru_hole oval (at 0 2.54 270) (size 1.7 1.7) (drill 1) (layers *.Cu *.Mask)
      (net 7 VCC))
    (pad 1 thru_hole rect (at 0 0 270) (size 1.7 1.7) (drill 1) (layers *.Cu *.Mask)
      (net 2 Earth))
    (model ${KISYS3DMOD}/Connector_PinHeader_2.54mm.3dshapes/PinHeader_1x02_P2.54mm_Vertical.wrl
      (at (xyz 0 0 0))
      (scale (xyz 1 1 1))
      (rotate (xyz 0 0 0))
    )
  )

  (module Resistor_THT:R_Axial_DIN0207_L6.3mm_D2.5mm_P10.16mm_Horizontal (layer F.Cu) (tedit 5AE5139B) (tstamp 60B66682)
    (at 166.878 61.976)
    (descr "Resistor, Axial_DIN0207 series, Axial, Horizontal, pin pitch=10.16mm, 0.25W = 1/4W, length*diameter=6.3*2.5mm^2, http://cdn-reichelt.de/documents/datenblatt/B400/1_4W%23YAG.pdf")
    (tags "Resistor Axial_DIN0207 series Axial Horizontal pin pitch 10.16mm 0.25W = 1/4W length 6.3mm diameter 2.5mm")
    (path /60B3EAE0)
    (fp_text reference R2 (at 4.953 -0.254) (layer F.SilkS)
      (effects (font (size 1 1) (thickness 0.15)))
    )
    (fp_text value R_US (at 5.08 2.37) (layer F.Fab)
      (effects (font (size 1 1) (thickness 0.15)))
    )
    (fp_line (start 11.21 -1.5) (end -1.05 -1.5) (layer F.CrtYd) (width 0.05))
    (fp_line (start 11.21 1.5) (end 11.21 -1.5) (layer F.CrtYd) (width 0.05))
    (fp_line (start -1.05 1.5) (end 11.21 1.5) (layer F.CrtYd) (width 0.05))
    (fp_line (start -1.05 -1.5) (end -1.05 1.5) (layer F.CrtYd) (width 0.05))
    (fp_line (start 9.12 0) (end 8.35 0) (layer F.SilkS) (width 0.12))
    (fp_line (start 1.04 0) (end 1.81 0) (layer F.SilkS) (width 0.12))
    (fp_line (start 8.35 -1.37) (end 1.81 -1.37) (layer F.SilkS) (width 0.12))
    (fp_line (start 8.35 1.37) (end 8.35 -1.37) (layer F.SilkS) (width 0.12))
    (fp_line (start 1.81 1.37) (end 8.35 1.37) (layer F.SilkS) (width 0.12))
    (fp_line (start 1.81 -1.37) (end 1.81 1.37) (layer F.SilkS) (width 0.12))
    (fp_line (start 10.16 0) (end 8.23 0) (layer F.Fab) (width 0.1))
    (fp_line (start 0 0) (end 1.93 0) (layer F.Fab) (width 0.1))
    (fp_line (start 8.23 -1.25) (end 1.93 -1.25) (layer F.Fab) (width 0.1))
    (fp_line (start 8.23 1.25) (end 8.23 -1.25) (layer F.Fab) (width 0.1))
    (fp_line (start 1.93 1.25) (end 8.23 1.25) (layer F.Fab) (width 0.1))
    (fp_line (start 1.93 -1.25) (end 1.93 1.25) (layer F.Fab) (width 0.1))
    (fp_text user %R (at 5.08 0) (layer F.Fab)
      (effects (font (size 1 1) (thickness 0.15)))
    )
    (pad 2 thru_hole oval (at 10.16 0) (size 1.6 1.6) (drill 0.8) (layers *.Cu *.Mask)
      (net 5 "Net-(D1-Pad2)"))
    (pad 1 thru_hole circle (at 0 0) (size 1.6 1.6) (drill 0.8) (layers *.Cu *.Mask)
      (net 7 VCC))
    (model ${KISYS3DMOD}/Resistor_THT.3dshapes/R_Axial_DIN0207_L6.3mm_D2.5mm_P10.16mm_Horizontal.wrl
      (at (xyz 0 0 0))
      (scale (xyz 1 1 1))
      (rotate (xyz 0 0 0))
    )
  )

  (module Package_DIP:DIP-8_W7.62mm (layer F.Cu) (tedit 5A02E8C5) (tstamp 60B6B184)
    (at 183.896 72.644 180)
    (descr "8-lead though-hole mounted DIP package, row spacing 7.62 mm (300 mils)")
    (tags "THT DIP DIL PDIP 2.54mm 7.62mm 300mil")
    (path /60B26C4D)
    (fp_text reference U1 (at 3.81 1.905) (layer F.SilkS)
      (effects (font (size 1 1) (thickness 0.15)))
    )
    (fp_text value LMC555 (at 3.81 9.95) (layer F.Fab)
      (effects (font (size 1 1) (thickness 0.15)))
    )
    (fp_line (start 8.7 -1.55) (end -1.1 -1.55) (layer F.CrtYd) (width 0.05))
    (fp_line (start 8.7 9.15) (end 8.7 -1.55) (layer F.CrtYd) (width 0.05))
    (fp_line (start -1.1 9.15) (end 8.7 9.15) (layer F.CrtYd) (width 0.05))
    (fp_line (start -1.1 -1.55) (end -1.1 9.15) (layer F.CrtYd) (width 0.05))
    (fp_line (start 6.46 -1.33) (end 4.81 -1.33) (layer F.SilkS) (width 0.12))
    (fp_line (start 6.46 8.95) (end 6.46 -1.33) (layer F.SilkS) (width 0.12))
    (fp_line (start 1.16 8.95) (end 6.46 8.95) (layer F.SilkS) (width 0.12))
    (fp_line (start 1.16 -1.33) (end 1.16 8.95) (layer F.SilkS) (width 0.12))
    (fp_line (start 2.81 -1.33) (end 1.16 -1.33) (layer F.SilkS) (width 0.12))
    (fp_line (start 0.635 -0.27) (end 1.635 -1.27) (layer F.Fab) (width 0.1))
    (fp_line (start 0.635 8.89) (end 0.635 -0.27) (layer F.Fab) (width 0.1))
    (fp_line (start 6.985 8.89) (end 0.635 8.89) (layer F.Fab) (width 0.1))
    (fp_line (start 6.985 -1.27) (end 6.985 8.89) (layer F.Fab) (width 0.1))
    (fp_line (start 1.635 -1.27) (end 6.985 -1.27) (layer F.Fab) (width 0.1))
    (fp_text user %R (at 3.81 3.81) (layer F.Fab)
      (effects (font (size 1 1) (thickness 0.15)))
    )
    (fp_arc (start 3.81 -1.33) (end 2.81 -1.33) (angle -180) (layer F.SilkS) (width 0.12))
    (pad 8 thru_hole oval (at 7.62 0 180) (size 1.6 1.6) (drill 0.8) (layers *.Cu *.Mask)
      (net 7 VCC))
    (pad 4 thru_hole oval (at 0 7.62 180) (size 1.6 1.6) (drill 0.8) (layers *.Cu *.Mask)
      (net 7 VCC))
    (pad 7 thru_hole oval (at 7.62 2.54 180) (size 1.6 1.6) (drill 0.8) (layers *.Cu *.Mask)
      (net 5 "Net-(D1-Pad2)"))
    (pad 3 thru_hole oval (at 0 5.08 180) (size 1.6 1.6) (drill 0.8) (layers *.Cu *.Mask)
      (net 12 OUT))
    (pad 6 thru_hole oval (at 7.62 5.08 180) (size 1.6 1.6) (drill 0.8) (layers *.Cu *.Mask)
      (net 3 "Net-(C2-Pad2)"))
    (pad 2 thru_hole oval (at 0 2.54 180) (size 1.6 1.6) (drill 0.8) (layers *.Cu *.Mask)
      (net 3 "Net-(C2-Pad2)"))
    (pad 5 thru_hole oval (at 7.62 7.62 180) (size 1.6 1.6) (drill 0.8) (layers *.Cu *.Mask)
      (net 1 "Net-(C1-Pad2)"))
    (pad 1 thru_hole rect (at 0 0 180) (size 1.6 1.6) (drill 0.8) (layers *.Cu *.Mask)
      (net 2 Earth))
    (model ${KISYS3DMOD}/Package_DIP.3dshapes/DIP-8_W7.62mm.wrl
      (at (xyz 0 0 0))
      (scale (xyz 1 1 1))
      (rotate (xyz 0 0 0))
    )
  )

  (module Resistor_THT:R_Axial_DIN0207_L6.3mm_D2.5mm_P10.16mm_Horizontal (layer F.Cu) (tedit 5AE5139B) (tstamp 60B6670C)
    (at 196.85 61.214 270)
    (descr "Resistor, Axial_DIN0207 series, Axial, Horizontal, pin pitch=10.16mm, 0.25W = 1/4W, length*diameter=6.3*2.5mm^2, http://cdn-reichelt.de/documents/datenblatt/B400/1_4W%23YAG.pdf")
    (tags "Resistor Axial_DIN0207 series Axial Horizontal pin pitch 10.16mm 0.25W = 1/4W length 6.3mm diameter 2.5mm")
    (path /60B675E8)
    (fp_text reference RL1 (at 5.08 -0.254 90) (layer F.SilkS)
      (effects (font (size 1 1) (thickness 0.15)))
    )
    (fp_text value R_US (at 5.08 2.37 90) (layer F.Fab)
      (effects (font (size 1 1) (thickness 0.15)))
    )
    (fp_line (start 11.21 -1.5) (end -1.05 -1.5) (layer F.CrtYd) (width 0.05))
    (fp_line (start 11.21 1.5) (end 11.21 -1.5) (layer F.CrtYd) (width 0.05))
    (fp_line (start -1.05 1.5) (end 11.21 1.5) (layer F.CrtYd) (width 0.05))
    (fp_line (start -1.05 -1.5) (end -1.05 1.5) (layer F.CrtYd) (width 0.05))
    (fp_line (start 9.12 0) (end 8.35 0) (layer F.SilkS) (width 0.12))
    (fp_line (start 1.04 0) (end 1.81 0) (layer F.SilkS) (width 0.12))
    (fp_line (start 8.35 -1.37) (end 1.81 -1.37) (layer F.SilkS) (width 0.12))
    (fp_line (start 8.35 1.37) (end 8.35 -1.37) (layer F.SilkS) (width 0.12))
    (fp_line (start 1.81 1.37) (end 8.35 1.37) (layer F.SilkS) (width 0.12))
    (fp_line (start 1.81 -1.37) (end 1.81 1.37) (layer F.SilkS) (width 0.12))
    (fp_line (start 10.16 0) (end 8.23 0) (layer F.Fab) (width 0.1))
    (fp_line (start 0 0) (end 1.93 0) (layer F.Fab) (width 0.1))
    (fp_line (start 8.23 -1.25) (end 1.93 -1.25) (layer F.Fab) (width 0.1))
    (fp_line (start 8.23 1.25) (end 8.23 -1.25) (layer F.Fab) (width 0.1))
    (fp_line (start 1.93 1.25) (end 8.23 1.25) (layer F.Fab) (width 0.1))
    (fp_line (start 1.93 -1.25) (end 1.93 1.25) (layer F.Fab) (width 0.1))
    (fp_text user %R (at 5.08 0 90) (layer F.Fab)
      (effects (font (size 1 1) (thickness 0.15)))
    )
    (pad 2 thru_hole oval (at 10.16 0 270) (size 1.6 1.6) (drill 0.8) (layers *.Cu *.Mask)
      (net 13 "Net-(Q1-Pad3)"))
    (pad 1 thru_hole circle (at 0 0 270) (size 1.6 1.6) (drill 0.8) (layers *.Cu *.Mask)
      (net 9 "Net-(J3-Pad2)"))
    (model ${KISYS3DMOD}/Resistor_THT.3dshapes/R_Axial_DIN0207_L6.3mm_D2.5mm_P10.16mm_Horizontal.wrl
      (at (xyz 0 0 0))
      (scale (xyz 1 1 1))
      (rotate (xyz 0 0 0))
    )
  )

  (module Resistor_THT:R_Axial_DIN0207_L6.3mm_D2.5mm_P10.16mm_Horizontal (layer F.Cu) (tedit 5AE5139B) (tstamp 60B666F5)
    (at 193.548 61.214 270)
    (descr "Resistor, Axial_DIN0207 series, Axial, Horizontal, pin pitch=10.16mm, 0.25W = 1/4W, length*diameter=6.3*2.5mm^2, http://cdn-reichelt.de/documents/datenblatt/B400/1_4W%23YAG.pdf")
    (tags "Resistor Axial_DIN0207 series Axial Horizontal pin pitch 10.16mm 0.25W = 1/4W length 6.3mm diameter 2.5mm")
    (path /60B67EC7)
    (fp_text reference RL2 (at 5.08 0 90) (layer F.SilkS)
      (effects (font (size 1 1) (thickness 0.15)))
    )
    (fp_text value R_US (at 5.08 2.37 90) (layer F.Fab)
      (effects (font (size 1 1) (thickness 0.15)))
    )
    (fp_line (start 11.21 -1.5) (end -1.05 -1.5) (layer F.CrtYd) (width 0.05))
    (fp_line (start 11.21 1.5) (end 11.21 -1.5) (layer F.CrtYd) (width 0.05))
    (fp_line (start -1.05 1.5) (end 11.21 1.5) (layer F.CrtYd) (width 0.05))
    (fp_line (start -1.05 -1.5) (end -1.05 1.5) (layer F.CrtYd) (width 0.05))
    (fp_line (start 9.12 0) (end 8.35 0) (layer F.SilkS) (width 0.12))
    (fp_line (start 1.04 0) (end 1.81 0) (layer F.SilkS) (width 0.12))
    (fp_line (start 8.35 -1.37) (end 1.81 -1.37) (layer F.SilkS) (width 0.12))
    (fp_line (start 8.35 1.37) (end 8.35 -1.37) (layer F.SilkS) (width 0.12))
    (fp_line (start 1.81 1.37) (end 8.35 1.37) (layer F.SilkS) (width 0.12))
    (fp_line (start 1.81 -1.37) (end 1.81 1.37) (layer F.SilkS) (width 0.12))
    (fp_line (start 10.16 0) (end 8.23 0) (layer F.Fab) (width 0.1))
    (fp_line (start 0 0) (end 1.93 0) (layer F.Fab) (width 0.1))
    (fp_line (start 8.23 -1.25) (end 1.93 -1.25) (layer F.Fab) (width 0.1))
    (fp_line (start 8.23 1.25) (end 8.23 -1.25) (layer F.Fab) (width 0.1))
    (fp_line (start 1.93 1.25) (end 8.23 1.25) (layer F.Fab) (width 0.1))
    (fp_line (start 1.93 -1.25) (end 1.93 1.25) (layer F.Fab) (width 0.1))
    (fp_text user %R (at 5.08 0 90) (layer F.Fab)
      (effects (font (size 1 1) (thickness 0.15)))
    )
    (pad 2 thru_hole oval (at 10.16 0 270) (size 1.6 1.6) (drill 0.8) (layers *.Cu *.Mask)
      (net 14 "Net-(Q2-Pad3)"))
    (pad 1 thru_hole circle (at 0 0 270) (size 1.6 1.6) (drill 0.8) (layers *.Cu *.Mask)
      (net 15 "Net-(J3-Pad3)"))
    (model ${KISYS3DMOD}/Resistor_THT.3dshapes/R_Axial_DIN0207_L6.3mm_D2.5mm_P10.16mm_Horizontal.wrl
      (at (xyz 0 0 0))
      (scale (xyz 1 1 1))
      (rotate (xyz 0 0 0))
    )
  )

  (module Resistor_THT:R_Axial_DIN0207_L6.3mm_D2.5mm_P10.16mm_Horizontal (layer F.Cu) (tedit 5AE5139B) (tstamp 60B666C7)
    (at 186.944 76.454 90)
    (descr "Resistor, Axial_DIN0207 series, Axial, Horizontal, pin pitch=10.16mm, 0.25W = 1/4W, length*diameter=6.3*2.5mm^2, http://cdn-reichelt.de/documents/datenblatt/B400/1_4W%23YAG.pdf")
    (tags "Resistor Axial_DIN0207 series Axial Horizontal pin pitch 10.16mm 0.25W = 1/4W length 6.3mm diameter 2.5mm")
    (path /60C00524)
    (fp_text reference RB1 (at 5.08 0 90) (layer F.SilkS)
      (effects (font (size 1 1) (thickness 0.15)))
    )
    (fp_text value R_US (at 5.08 2.37 90) (layer F.Fab)
      (effects (font (size 1 1) (thickness 0.15)))
    )
    (fp_line (start 11.21 -1.5) (end -1.05 -1.5) (layer F.CrtYd) (width 0.05))
    (fp_line (start 11.21 1.5) (end 11.21 -1.5) (layer F.CrtYd) (width 0.05))
    (fp_line (start -1.05 1.5) (end 11.21 1.5) (layer F.CrtYd) (width 0.05))
    (fp_line (start -1.05 -1.5) (end -1.05 1.5) (layer F.CrtYd) (width 0.05))
    (fp_line (start 9.12 0) (end 8.35 0) (layer F.SilkS) (width 0.12))
    (fp_line (start 1.04 0) (end 1.81 0) (layer F.SilkS) (width 0.12))
    (fp_line (start 8.35 -1.37) (end 1.81 -1.37) (layer F.SilkS) (width 0.12))
    (fp_line (start 8.35 1.37) (end 8.35 -1.37) (layer F.SilkS) (width 0.12))
    (fp_line (start 1.81 1.37) (end 8.35 1.37) (layer F.SilkS) (width 0.12))
    (fp_line (start 1.81 -1.37) (end 1.81 1.37) (layer F.SilkS) (width 0.12))
    (fp_line (start 10.16 0) (end 8.23 0) (layer F.Fab) (width 0.1))
    (fp_line (start 0 0) (end 1.93 0) (layer F.Fab) (width 0.1))
    (fp_line (start 8.23 -1.25) (end 1.93 -1.25) (layer F.Fab) (width 0.1))
    (fp_line (start 8.23 1.25) (end 8.23 -1.25) (layer F.Fab) (width 0.1))
    (fp_line (start 1.93 1.25) (end 8.23 1.25) (layer F.Fab) (width 0.1))
    (fp_line (start 1.93 -1.25) (end 1.93 1.25) (layer F.Fab) (width 0.1))
    (fp_text user %R (at 5.08 0 90) (layer F.Fab)
      (effects (font (size 1 1) (thickness 0.15)))
    )
    (pad 2 thru_hole oval (at 10.16 0 90) (size 1.6 1.6) (drill 0.8) (layers *.Cu *.Mask)
      (net 12 OUT))
    (pad 1 thru_hole circle (at 0 0 90) (size 1.6 1.6) (drill 0.8) (layers *.Cu *.Mask)
      (net 10 "Net-(Q1-Pad2)"))
    (model ${KISYS3DMOD}/Resistor_THT.3dshapes/R_Axial_DIN0207_L6.3mm_D2.5mm_P10.16mm_Horizontal.wrl
      (at (xyz 0 0 0))
      (scale (xyz 1 1 1))
      (rotate (xyz 0 0 0))
    )
  )

  (module Resistor_THT:R_Axial_DIN0207_L6.3mm_D2.5mm_P10.16mm_Horizontal (layer F.Cu) (tedit 5AE5139B) (tstamp 60B666B0)
    (at 190.246 76.454 90)
    (descr "Resistor, Axial_DIN0207 series, Axial, Horizontal, pin pitch=10.16mm, 0.25W = 1/4W, length*diameter=6.3*2.5mm^2, http://cdn-reichelt.de/documents/datenblatt/B400/1_4W%23YAG.pdf")
    (tags "Resistor Axial_DIN0207 series Axial Horizontal pin pitch 10.16mm 0.25W = 1/4W length 6.3mm diameter 2.5mm")
    (path /60C01E40)
    (fp_text reference RB2 (at 5.08 0 90) (layer F.SilkS)
      (effects (font (size 1 1) (thickness 0.15)))
    )
    (fp_text value R_US (at 5.08 2.37 90) (layer F.Fab)
      (effects (font (size 1 1) (thickness 0.15)))
    )
    (fp_line (start 11.21 -1.5) (end -1.05 -1.5) (layer F.CrtYd) (width 0.05))
    (fp_line (start 11.21 1.5) (end 11.21 -1.5) (layer F.CrtYd) (width 0.05))
    (fp_line (start -1.05 1.5) (end 11.21 1.5) (layer F.CrtYd) (width 0.05))
    (fp_line (start -1.05 -1.5) (end -1.05 1.5) (layer F.CrtYd) (width 0.05))
    (fp_line (start 9.12 0) (end 8.35 0) (layer F.SilkS) (width 0.12))
    (fp_line (start 1.04 0) (end 1.81 0) (layer F.SilkS) (width 0.12))
    (fp_line (start 8.35 -1.37) (end 1.81 -1.37) (layer F.SilkS) (width 0.12))
    (fp_line (start 8.35 1.37) (end 8.35 -1.37) (layer F.SilkS) (width 0.12))
    (fp_line (start 1.81 1.37) (end 8.35 1.37) (layer F.SilkS) (width 0.12))
    (fp_line (start 1.81 -1.37) (end 1.81 1.37) (layer F.SilkS) (width 0.12))
    (fp_line (start 10.16 0) (end 8.23 0) (layer F.Fab) (width 0.1))
    (fp_line (start 0 0) (end 1.93 0) (layer F.Fab) (width 0.1))
    (fp_line (start 8.23 -1.25) (end 1.93 -1.25) (layer F.Fab) (width 0.1))
    (fp_line (start 8.23 1.25) (end 8.23 -1.25) (layer F.Fab) (width 0.1))
    (fp_line (start 1.93 1.25) (end 8.23 1.25) (layer F.Fab) (width 0.1))
    (fp_line (start 1.93 -1.25) (end 1.93 1.25) (layer F.Fab) (width 0.1))
    (fp_text user %R (at 5.08 0 90) (layer F.Fab)
      (effects (font (size 1 1) (thickness 0.15)))
    )
    (pad 2 thru_hole oval (at 10.16 0 90) (size 1.6 1.6) (drill 0.8) (layers *.Cu *.Mask)
      (net 12 OUT))
    (pad 1 thru_hole circle (at 0 0 90) (size 1.6 1.6) (drill 0.8) (layers *.Cu *.Mask)
      (net 11 "Net-(Q2-Pad2)"))
    (model ${KISYS3DMOD}/Resistor_THT.3dshapes/R_Axial_DIN0207_L6.3mm_D2.5mm_P10.16mm_Horizontal.wrl
      (at (xyz 0 0 0))
      (scale (xyz 1 1 1))
      (rotate (xyz 0 0 0))
    )
  )

  (module Resistor_THT:R_Axial_DIN0207_L6.3mm_D2.5mm_P10.16mm_Horizontal (layer F.Cu) (tedit 5AE5139B) (tstamp 60B66699)
    (at 170.688 65.532 270)
    (descr "Resistor, Axial_DIN0207 series, Axial, Horizontal, pin pitch=10.16mm, 0.25W = 1/4W, length*diameter=6.3*2.5mm^2, http://cdn-reichelt.de/documents/datenblatt/B400/1_4W%23YAG.pdf")
    (tags "Resistor Axial_DIN0207 series Axial Horizontal pin pitch 10.16mm 0.25W = 1/4W length 6.3mm diameter 2.5mm")
    (path /60B430EB)
    (fp_text reference R1 (at 5.08 0 90) (layer F.SilkS)
      (effects (font (size 1 1) (thickness 0.15)))
    )
    (fp_text value R_US (at 5.08 2.37 90) (layer F.Fab)
      (effects (font (size 1 1) (thickness 0.15)))
    )
    (fp_line (start 11.21 -1.5) (end -1.05 -1.5) (layer F.CrtYd) (width 0.05))
    (fp_line (start 11.21 1.5) (end 11.21 -1.5) (layer F.CrtYd) (width 0.05))
    (fp_line (start -1.05 1.5) (end 11.21 1.5) (layer F.CrtYd) (width 0.05))
    (fp_line (start -1.05 -1.5) (end -1.05 1.5) (layer F.CrtYd) (width 0.05))
    (fp_line (start 9.12 0) (end 8.35 0) (layer F.SilkS) (width 0.12))
    (fp_line (start 1.04 0) (end 1.81 0) (layer F.SilkS) (width 0.12))
    (fp_line (start 8.35 -1.37) (end 1.81 -1.37) (layer F.SilkS) (width 0.12))
    (fp_line (start 8.35 1.37) (end 8.35 -1.37) (layer F.SilkS) (width 0.12))
    (fp_line (start 1.81 1.37) (end 8.35 1.37) (layer F.SilkS) (width 0.12))
    (fp_line (start 1.81 -1.37) (end 1.81 1.37) (layer F.SilkS) (width 0.12))
    (fp_line (start 10.16 0) (end 8.23 0) (layer F.Fab) (width 0.1))
    (fp_line (start 0 0) (end 1.93 0) (layer F.Fab) (width 0.1))
    (fp_line (start 8.23 -1.25) (end 1.93 -1.25) (layer F.Fab) (width 0.1))
    (fp_line (start 8.23 1.25) (end 8.23 -1.25) (layer F.Fab) (width 0.1))
    (fp_line (start 1.93 1.25) (end 8.23 1.25) (layer F.Fab) (width 0.1))
    (fp_line (start 1.93 -1.25) (end 1.93 1.25) (layer F.Fab) (width 0.1))
    (fp_text user %R (at 5.08 0 90) (layer F.Fab)
      (effects (font (size 1 1) (thickness 0.15)))
    )
    (pad 2 thru_hole oval (at 10.16 0 270) (size 1.6 1.6) (drill 0.8) (layers *.Cu *.Mask)
      (net 6 "Net-(D2-Pad2)"))
    (pad 1 thru_hole circle (at 0 0 270) (size 1.6 1.6) (drill 0.8) (layers *.Cu *.Mask)
      (net 8 "Net-(J2-Pad3)"))
    (model ${KISYS3DMOD}/Resistor_THT.3dshapes/R_Axial_DIN0207_L6.3mm_D2.5mm_P10.16mm_Horizontal.wrl
      (at (xyz 0 0 0))
      (scale (xyz 1 1 1))
      (rotate (xyz 0 0 0))
    )
  )

  (module Package_TO_SOT_THT:TO-92_Inline (layer F.Cu) (tedit 5A1DD157) (tstamp 60B66659)
    (at 187.452 62.484)
    (descr "TO-92 leads in-line, narrow, oval pads, drill 0.75mm (see NXP sot054_po.pdf)")
    (tags "to-92 sc-43 sc-43a sot54 PA33 transistor")
    (path /60C0EC03)
    (fp_text reference Q1 (at -1.778 -2.032) (layer F.SilkS)
      (effects (font (size 1 1) (thickness 0.15)))
    )
    (fp_text value 2N3904 (at 1.27 2.79) (layer F.Fab)
      (effects (font (size 1 1) (thickness 0.15)))
    )
    (fp_line (start 4 2.01) (end -1.46 2.01) (layer F.CrtYd) (width 0.05))
    (fp_line (start 4 2.01) (end 4 -2.73) (layer F.CrtYd) (width 0.05))
    (fp_line (start -1.46 -2.73) (end -1.46 2.01) (layer F.CrtYd) (width 0.05))
    (fp_line (start -1.46 -2.73) (end 4 -2.73) (layer F.CrtYd) (width 0.05))
    (fp_line (start -0.5 1.75) (end 3 1.75) (layer F.Fab) (width 0.1))
    (fp_line (start -0.53 1.85) (end 3.07 1.85) (layer F.SilkS) (width 0.12))
    (fp_arc (start 1.27 0) (end 1.27 -2.6) (angle 135) (layer F.SilkS) (width 0.12))
    (fp_arc (start 1.27 0) (end 1.27 -2.48) (angle -135) (layer F.Fab) (width 0.1))
    (fp_arc (start 1.27 0) (end 1.27 -2.6) (angle -135) (layer F.SilkS) (width 0.12))
    (fp_arc (start 1.27 0) (end 1.27 -2.48) (angle 135) (layer F.Fab) (width 0.1))
    (fp_text user %R (at 1.27 0) (layer F.Fab)
      (effects (font (size 1 1) (thickness 0.15)))
    )
    (pad 1 thru_hole rect (at 0 0) (size 1.05 1.5) (drill 0.75) (layers *.Cu *.Mask)
      (net 2 Earth))
    (pad 3 thru_hole oval (at 2.54 0) (size 1.05 1.5) (drill 0.75) (layers *.Cu *.Mask)
      (net 13 "Net-(Q1-Pad3)"))
    (pad 2 thru_hole oval (at 1.27 0) (size 1.05 1.5) (drill 0.75) (layers *.Cu *.Mask)
      (net 10 "Net-(Q1-Pad2)"))
    (model ${KISYS3DMOD}/Package_TO_SOT_THT.3dshapes/TO-92_Inline.wrl
      (at (xyz 0 0 0))
      (scale (xyz 1 1 1))
      (rotate (xyz 0 0 0))
    )
  )

  (module Package_TO_SOT_THT:TO-92_Inline (layer F.Cu) (tedit 5A1DD157) (tstamp 60B66647)
    (at 193.294 75.184)
    (descr "TO-92 leads in-line, narrow, oval pads, drill 0.75mm (see NXP sot054_po.pdf)")
    (tags "to-92 sc-43 sc-43a sot54 PA33 transistor")
    (path /60C126D1)
    (fp_text reference Q2 (at 4.064 -2.54) (layer F.SilkS)
      (effects (font (size 1 1) (thickness 0.15)))
    )
    (fp_text value 2N3904 (at 1.27 2.79) (layer F.Fab)
      (effects (font (size 1 1) (thickness 0.15)))
    )
    (fp_line (start 4 2.01) (end -1.46 2.01) (layer F.CrtYd) (width 0.05))
    (fp_line (start 4 2.01) (end 4 -2.73) (layer F.CrtYd) (width 0.05))
    (fp_line (start -1.46 -2.73) (end -1.46 2.01) (layer F.CrtYd) (width 0.05))
    (fp_line (start -1.46 -2.73) (end 4 -2.73) (layer F.CrtYd) (width 0.05))
    (fp_line (start -0.5 1.75) (end 3 1.75) (layer F.Fab) (width 0.1))
    (fp_line (start -0.53 1.85) (end 3.07 1.85) (layer F.SilkS) (width 0.12))
    (fp_arc (start 1.27 0) (end 1.27 -2.6) (angle 135) (layer F.SilkS) (width 0.12))
    (fp_arc (start 1.27 0) (end 1.27 -2.48) (angle -135) (layer F.Fab) (width 0.1))
    (fp_arc (start 1.27 0) (end 1.27 -2.6) (angle -135) (layer F.SilkS) (width 0.12))
    (fp_arc (start 1.27 0) (end 1.27 -2.48) (angle 135) (layer F.Fab) (width 0.1))
    (fp_text user %R (at 1.27 0) (layer F.Fab)
      (effects (font (size 1 1) (thickness 0.15)))
    )
    (pad 1 thru_hole rect (at 0 0) (size 1.05 1.5) (drill 0.75) (layers *.Cu *.Mask)
      (net 2 Earth))
    (pad 3 thru_hole oval (at 2.54 0) (size 1.05 1.5) (drill 0.75) (layers *.Cu *.Mask)
      (net 14 "Net-(Q2-Pad3)"))
    (pad 2 thru_hole oval (at 1.27 0) (size 1.05 1.5) (drill 0.75) (layers *.Cu *.Mask)
      (net 11 "Net-(Q2-Pad2)"))
    (model ${KISYS3DMOD}/Package_TO_SOT_THT.3dshapes/TO-92_Inline.wrl
      (at (xyz 0 0 0))
      (scale (xyz 1 1 1))
      (rotate (xyz 0 0 0))
    )
  )

  (module Diode_THT:D_DO-35_SOD27_P7.62mm_Horizontal (layer F.Cu) (tedit 5AE50CD5) (tstamp 60B665F0)
    (at 173.736 68.072 270)
    (descr "Diode, DO-35_SOD27 series, Axial, Horizontal, pin pitch=7.62mm, , length*diameter=4*2mm^2, , http://www.diodes.com/_files/packages/DO-35.pdf")
    (tags "Diode DO-35_SOD27 series Axial Horizontal pin pitch 7.62mm  length 4mm diameter 2mm")
    (path /60B44EBF)
    (fp_text reference D2 (at 4.191 -0.254 90) (layer F.SilkS)
      (effects (font (size 1 1) (thickness 0.15)))
    )
    (fp_text value D (at 3.81 2.12 90) (layer F.Fab)
      (effects (font (size 1 1) (thickness 0.15)))
    )
    (fp_line (start 8.67 -1.25) (end -1.05 -1.25) (layer F.CrtYd) (width 0.05))
    (fp_line (start 8.67 1.25) (end 8.67 -1.25) (layer F.CrtYd) (width 0.05))
    (fp_line (start -1.05 1.25) (end 8.67 1.25) (layer F.CrtYd) (width 0.05))
    (fp_line (start -1.05 -1.25) (end -1.05 1.25) (layer F.CrtYd) (width 0.05))
    (fp_line (start 2.29 -1.12) (end 2.29 1.12) (layer F.SilkS) (width 0.12))
    (fp_line (start 2.53 -1.12) (end 2.53 1.12) (layer F.SilkS) (width 0.12))
    (fp_line (start 2.41 -1.12) (end 2.41 1.12) (layer F.SilkS) (width 0.12))
    (fp_line (start 6.58 0) (end 5.93 0) (layer F.SilkS) (width 0.12))
    (fp_line (start 1.04 0) (end 1.69 0) (layer F.SilkS) (width 0.12))
    (fp_line (start 5.93 -1.12) (end 1.69 -1.12) (layer F.SilkS) (width 0.12))
    (fp_line (start 5.93 1.12) (end 5.93 -1.12) (layer F.SilkS) (width 0.12))
    (fp_line (start 1.69 1.12) (end 5.93 1.12) (layer F.SilkS) (width 0.12))
    (fp_line (start 1.69 -1.12) (end 1.69 1.12) (layer F.SilkS) (width 0.12))
    (fp_line (start 2.31 -1) (end 2.31 1) (layer F.Fab) (width 0.1))
    (fp_line (start 2.51 -1) (end 2.51 1) (layer F.Fab) (width 0.1))
    (fp_line (start 2.41 -1) (end 2.41 1) (layer F.Fab) (width 0.1))
    (fp_line (start 7.62 0) (end 5.81 0) (layer F.Fab) (width 0.1))
    (fp_line (start 0 0) (end 1.81 0) (layer F.Fab) (width 0.1))
    (fp_line (start 5.81 -1) (end 1.81 -1) (layer F.Fab) (width 0.1))
    (fp_line (start 5.81 1) (end 5.81 -1) (layer F.Fab) (width 0.1))
    (fp_line (start 1.81 1) (end 5.81 1) (layer F.Fab) (width 0.1))
    (fp_line (start 1.81 -1) (end 1.81 1) (layer F.Fab) (width 0.1))
    (fp_text user K (at 0 -1.8 90) (layer F.Fab)
      (effects (font (size 1 1) (thickness 0.15)))
    )
    (fp_text user %R (at 4.11 0 90) (layer F.Fab)
      (effects (font (size 0.8 0.8) (thickness 0.12)))
    )
    (pad 2 thru_hole oval (at 7.62 0 270) (size 1.6 1.6) (drill 0.8) (layers *.Cu *.Mask)
      (net 6 "Net-(D2-Pad2)"))
    (pad 1 thru_hole rect (at 0 0 270) (size 1.6 1.6) (drill 0.8) (layers *.Cu *.Mask)
      (net 5 "Net-(D1-Pad2)"))
    (model ${KISYS3DMOD}/Diode_THT.3dshapes/D_DO-35_SOD27_P7.62mm_Horizontal.wrl
      (at (xyz 0 0 0))
      (scale (xyz 1 1 1))
      (rotate (xyz 0 0 0))
    )
  )

  (module Diode_THT:D_DO-35_SOD27_P7.62mm_Horizontal (layer F.Cu) (tedit 5AE50CD5) (tstamp 60B665D1)
    (at 167.64 75.946 90)
    (descr "Diode, DO-35_SOD27 series, Axial, Horizontal, pin pitch=7.62mm, , length*diameter=4*2mm^2, , http://www.diodes.com/_files/packages/DO-35.pdf")
    (tags "Diode DO-35_SOD27 series Axial Horizontal pin pitch 7.62mm  length 4mm diameter 2mm")
    (path /60B44385)
    (fp_text reference D1 (at 4.064 0 90) (layer F.SilkS)
      (effects (font (size 1 1) (thickness 0.15)))
    )
    (fp_text value D (at 3.81 2.12 90) (layer F.Fab)
      (effects (font (size 1 1) (thickness 0.15)))
    )
    (fp_line (start 8.67 -1.25) (end -1.05 -1.25) (layer F.CrtYd) (width 0.05))
    (fp_line (start 8.67 1.25) (end 8.67 -1.25) (layer F.CrtYd) (width 0.05))
    (fp_line (start -1.05 1.25) (end 8.67 1.25) (layer F.CrtYd) (width 0.05))
    (fp_line (start -1.05 -1.25) (end -1.05 1.25) (layer F.CrtYd) (width 0.05))
    (fp_line (start 2.29 -1.12) (end 2.29 1.12) (layer F.SilkS) (width 0.12))
    (fp_line (start 2.53 -1.12) (end 2.53 1.12) (layer F.SilkS) (width 0.12))
    (fp_line (start 2.41 -1.12) (end 2.41 1.12) (layer F.SilkS) (width 0.12))
    (fp_line (start 6.58 0) (end 5.93 0) (layer F.SilkS) (width 0.12))
    (fp_line (start 1.04 0) (end 1.69 0) (layer F.SilkS) (width 0.12))
    (fp_line (start 5.93 -1.12) (end 1.69 -1.12) (layer F.SilkS) (width 0.12))
    (fp_line (start 5.93 1.12) (end 5.93 -1.12) (layer F.SilkS) (width 0.12))
    (fp_line (start 1.69 1.12) (end 5.93 1.12) (layer F.SilkS) (width 0.12))
    (fp_line (start 1.69 -1.12) (end 1.69 1.12) (layer F.SilkS) (width 0.12))
    (fp_line (start 2.31 -1) (end 2.31 1) (layer F.Fab) (width 0.1))
    (fp_line (start 2.51 -1) (end 2.51 1) (layer F.Fab) (width 0.1))
    (fp_line (start 2.41 -1) (end 2.41 1) (layer F.Fab) (width 0.1))
    (fp_line (start 7.62 0) (end 5.81 0) (layer F.Fab) (width 0.1))
    (fp_line (start 0 0) (end 1.81 0) (layer F.Fab) (width 0.1))
    (fp_line (start 5.81 -1) (end 1.81 -1) (layer F.Fab) (width 0.1))
    (fp_line (start 5.81 1) (end 5.81 -1) (layer F.Fab) (width 0.1))
    (fp_line (start 1.81 1) (end 5.81 1) (layer F.Fab) (width 0.1))
    (fp_line (start 1.81 -1) (end 1.81 1) (layer F.Fab) (width 0.1))
    (fp_text user K (at 0 -1.8 90) (layer F.Fab)
      (effects (font (size 1 1) (thickness 0.15)))
    )
    (fp_text user %R (at 4.11 0 90) (layer F.Fab)
      (effects (font (size 0.8 0.8) (thickness 0.12)))
    )
    (pad 2 thru_hole oval (at 7.62 0 90) (size 1.6 1.6) (drill 0.8) (layers *.Cu *.Mask)
      (net 5 "Net-(D1-Pad2)"))
    (pad 1 thru_hole rect (at 0 0 90) (size 1.6 1.6) (drill 0.8) (layers *.Cu *.Mask)
      (net 4 "Net-(D1-Pad1)"))
    (model ${KISYS3DMOD}/Diode_THT.3dshapes/D_DO-35_SOD27_P7.62mm_Horizontal.wrl
      (at (xyz 0 0 0))
      (scale (xyz 1 1 1))
      (rotate (xyz 0 0 0))
    )
  )

  (module Capacitor_THT:C_Disc_D4.3mm_W1.9mm_P5.00mm (layer F.Cu) (tedit 5AE50EF0) (tstamp 60B665B2)
    (at 184.15 61.976 180)
    (descr "C, Disc series, Radial, pin pitch=5.00mm, , diameter*width=4.3*1.9mm^2, Capacitor, http://www.vishay.com/docs/45233/krseries.pdf")
    (tags "C Disc series Radial pin pitch 5.00mm  diameter 4.3mm width 1.9mm Capacitor")
    (path /60B28C78)
    (fp_text reference C1-10n (at 2.5 0) (layer F.SilkS)
      (effects (font (size 0.5 0.5) (thickness 0.1)))
    )
    (fp_text value "10 nF" (at 2.5 2.2) (layer F.Fab)
      (effects (font (size 1 1) (thickness 0.15)))
    )
    (fp_line (start 6.05 -1.2) (end -1.05 -1.2) (layer F.CrtYd) (width 0.05))
    (fp_line (start 6.05 1.2) (end 6.05 -1.2) (layer F.CrtYd) (width 0.05))
    (fp_line (start -1.05 1.2) (end 6.05 1.2) (layer F.CrtYd) (width 0.05))
    (fp_line (start -1.05 -1.2) (end -1.05 1.2) (layer F.CrtYd) (width 0.05))
    (fp_line (start 4.77 1.055) (end 4.77 1.07) (layer F.SilkS) (width 0.12))
    (fp_line (start 4.77 -1.07) (end 4.77 -1.055) (layer F.SilkS) (width 0.12))
    (fp_line (start 0.23 1.055) (end 0.23 1.07) (layer F.SilkS) (width 0.12))
    (fp_line (start 0.23 -1.07) (end 0.23 -1.055) (layer F.SilkS) (width 0.12))
    (fp_line (start 0.23 1.07) (end 4.77 1.07) (layer F.SilkS) (width 0.12))
    (fp_line (start 0.23 -1.07) (end 4.77 -1.07) (layer F.SilkS) (width 0.12))
    (fp_line (start 4.65 -0.95) (end 0.35 -0.95) (layer F.Fab) (width 0.1))
    (fp_line (start 4.65 0.95) (end 4.65 -0.95) (layer F.Fab) (width 0.1))
    (fp_line (start 0.35 0.95) (end 4.65 0.95) (layer F.Fab) (width 0.1))
    (fp_line (start 0.35 -0.95) (end 0.35 0.95) (layer F.Fab) (width 0.1))
    (fp_text user %R (at 2.5 0) (layer F.Fab)
      (effects (font (size 0.86 0.86) (thickness 0.129)))
    )
    (pad 2 thru_hole circle (at 5 0 180) (size 1.6 1.6) (drill 0.8) (layers *.Cu *.Mask)
      (net 1 "Net-(C1-Pad2)"))
    (pad 1 thru_hole circle (at 0 0 180) (size 1.6 1.6) (drill 0.8) (layers *.Cu *.Mask)
      (net 2 Earth))
    (model ${KISYS3DMOD}/Capacitor_THT.3dshapes/C_Disc_D4.3mm_W1.9mm_P5.00mm.wrl
      (at (xyz 0 0 0))
      (scale (xyz 1 1 1))
      (rotate (xyz 0 0 0))
    )
  )

  (module Capacitor_THT:C_Disc_D4.3mm_W1.9mm_P5.00mm (layer F.Cu) (tedit 5AE50EF0) (tstamp 60B6659D)
    (at 182.372 75.692 180)
    (descr "C, Disc series, Radial, pin pitch=5.00mm, , diameter*width=4.3*1.9mm^2, Capacitor, http://www.vishay.com/docs/45233/krseries.pdf")
    (tags "C Disc series Radial pin pitch 5.00mm  diameter 4.3mm width 1.9mm Capacitor")
    (path /60B6FF17)
    (fp_text reference C2 (at 2.5 0) (layer F.SilkS)
      (effects (font (size 1 1) (thickness 0.15)))
    )
    (fp_text value C (at 2.5 2.2) (layer F.Fab)
      (effects (font (size 1 1) (thickness 0.15)))
    )
    (fp_line (start 6.05 -1.2) (end -1.05 -1.2) (layer F.CrtYd) (width 0.05))
    (fp_line (start 6.05 1.2) (end 6.05 -1.2) (layer F.CrtYd) (width 0.05))
    (fp_line (start -1.05 1.2) (end 6.05 1.2) (layer F.CrtYd) (width 0.05))
    (fp_line (start -1.05 -1.2) (end -1.05 1.2) (layer F.CrtYd) (width 0.05))
    (fp_line (start 4.77 1.055) (end 4.77 1.07) (layer F.SilkS) (width 0.12))
    (fp_line (start 4.77 -1.07) (end 4.77 -1.055) (layer F.SilkS) (width 0.12))
    (fp_line (start 0.23 1.055) (end 0.23 1.07) (layer F.SilkS) (width 0.12))
    (fp_line (start 0.23 -1.07) (end 0.23 -1.055) (layer F.SilkS) (width 0.12))
    (fp_line (start 0.23 1.07) (end 4.77 1.07) (layer F.SilkS) (width 0.12))
    (fp_line (start 0.23 -1.07) (end 4.77 -1.07) (layer F.SilkS) (width 0.12))
    (fp_line (start 4.65 -0.95) (end 0.35 -0.95) (layer F.Fab) (width 0.1))
    (fp_line (start 4.65 0.95) (end 4.65 -0.95) (layer F.Fab) (width 0.1))
    (fp_line (start 0.35 0.95) (end 4.65 0.95) (layer F.Fab) (width 0.1))
    (fp_line (start 0.35 -0.95) (end 0.35 0.95) (layer F.Fab) (width 0.1))
    (fp_text user %R (at 2.5 0) (layer F.Fab)
      (effects (font (size 0.86 0.86) (thickness 0.129)))
    )
    (pad 2 thru_hole circle (at 5 0 180) (size 1.6 1.6) (drill 0.8) (layers *.Cu *.Mask)
      (net 3 "Net-(C2-Pad2)"))
    (pad 1 thru_hole circle (at 0 0 180) (size 1.6 1.6) (drill 0.8) (layers *.Cu *.Mask)
      (net 2 Earth))
    (model ${KISYS3DMOD}/Capacitor_THT.3dshapes/C_Disc_D4.3mm_W1.9mm_P5.00mm.wrl
      (at (xyz 0 0 0))
      (scale (xyz 1 1 1))
      (rotate (xyz 0 0 0))
    )
  )

  (module Connector_PinHeader_2.54mm:PinHeader_1x03_P2.54mm_Vertical (layer F.Cu) (tedit 59FED5CC) (tstamp 60DA577A)
    (at 200.152 65.024)
    (descr "Through hole straight pin header, 1x03, 2.54mm pitch, single row")
    (tags "Through hole pin header THT 1x03 2.54mm single row")
    (path /60DA4554)
    (fp_text reference J3 (at 1.27 7.62) (layer F.SilkS)
      (effects (font (size 1 1) (thickness 0.15)))
    )
    (fp_text value Conn_01x03_Male (at 0 7.41) (layer F.Fab)
      (effects (font (size 1 1) (thickness 0.15)))
    )
    (fp_line (start 1.8 -1.8) (end -1.8 -1.8) (layer F.CrtYd) (width 0.05))
    (fp_line (start 1.8 6.85) (end 1.8 -1.8) (layer F.CrtYd) (width 0.05))
    (fp_line (start -1.8 6.85) (end 1.8 6.85) (layer F.CrtYd) (width 0.05))
    (fp_line (start -1.8 -1.8) (end -1.8 6.85) (layer F.CrtYd) (width 0.05))
    (fp_line (start -1.33 -1.33) (end 0 -1.33) (layer F.SilkS) (width 0.12))
    (fp_line (start -1.33 0) (end -1.33 -1.33) (layer F.SilkS) (width 0.12))
    (fp_line (start -1.33 1.27) (end 1.33 1.27) (layer F.SilkS) (width 0.12))
    (fp_line (start 1.33 1.27) (end 1.33 6.41) (layer F.SilkS) (width 0.12))
    (fp_line (start -1.33 1.27) (end -1.33 6.41) (layer F.SilkS) (width 0.12))
    (fp_line (start -1.33 6.41) (end 1.33 6.41) (layer F.SilkS) (width 0.12))
    (fp_line (start -1.27 -0.635) (end -0.635 -1.27) (layer F.Fab) (width 0.1))
    (fp_line (start -1.27 6.35) (end -1.27 -0.635) (layer F.Fab) (width 0.1))
    (fp_line (start 1.27 6.35) (end -1.27 6.35) (layer F.Fab) (width 0.1))
    (fp_line (start 1.27 -1.27) (end 1.27 6.35) (layer F.Fab) (width 0.1))
    (fp_line (start -0.635 -1.27) (end 1.27 -1.27) (layer F.Fab) (width 0.1))
    (fp_text user %R (at 0 2.54 90) (layer F.Fab)
      (effects (font (size 1 1) (thickness 0.15)))
    )
    (pad 1 thru_hole rect (at 0 0) (size 1.7 1.7) (drill 1) (layers *.Cu *.Mask)
      (net 7 VCC))
    (pad 2 thru_hole oval (at 0 2.54) (size 1.7 1.7) (drill 1) (layers *.Cu *.Mask)
      (net 9 "Net-(J3-Pad2)"))
    (pad 3 thru_hole oval (at 0 5.08) (size 1.7 1.7) (drill 1) (layers *.Cu *.Mask)
      (net 15 "Net-(J3-Pad3)"))
    (model ${KISYS3DMOD}/Connector_PinHeader_2.54mm.3dshapes/PinHeader_1x03_P2.54mm_Vertical.wrl
      (at (xyz 0 0 0))
      (scale (xyz 1 1 1))
      (rotate (xyz 0 0 0))
    )
  )

  (gr_text PV (at 162.306 71.628 90) (layer F.SilkS)
    (effects (font (size 1 1) (thickness 0.15)))
  )
  (gr_text P2 (at 162.306 74.422 90) (layer F.SilkS)
    (effects (font (size 1 1) (thickness 0.15)))
  )
  (gr_text P1 (at 162.306 68.326 90) (layer F.SilkS)
    (effects (font (size 1 1) (thickness 0.15)))
  )
  (gr_text - (at 169.418 64.008) (layer F.SilkS)
    (effects (font (size 1 1) (thickness 0.15)))
  )
  (gr_text L2 (at 202.438 70.104) (layer F.SilkS)
    (effects (font (size 1 1) (thickness 0.15)))
  )
  (gr_text L1 (at 202.438 67.564) (layer F.SilkS)
    (effects (font (size 1 1) (thickness 0.15)))
  )
  (gr_line (start 203.708 59.436) (end 161.29 59.436) (layer Edge.Cuts) (width 0.05) (tstamp 60DA8371))
  (gr_line (start 203.708 79.502) (end 203.708 59.436) (layer Edge.Cuts) (width 0.05))
  (gr_line (start 161.29 79.502) (end 203.708 79.502) (layer Edge.Cuts) (width 0.05))
  (gr_line (start 161.29 59.436) (end 161.29 79.502) (layer Edge.Cuts) (width 0.05))
  (gr_line (start 203.454 59.69) (end 161.544 59.69) (layer Margin) (width 0.15) (tstamp 60DA836A))
  (gr_line (start 203.454 79.248) (end 203.454 59.69) (layer Margin) (width 0.15))
  (gr_line (start 161.544 79.248) (end 203.454 79.248) (layer Margin) (width 0.15))
  (gr_line (start 161.544 59.69) (end 161.544 79.248) (layer Margin) (width 0.15))
  (gr_circle (center 163.068 77.724) (end 164.338 78.232) (layer Edge.Cuts) (width 0.05) (tstamp 60B91111))
  (gr_circle (center 163.068 61.214) (end 164.338 61.722) (layer Edge.Cuts) (width 0.05) (tstamp 60B91111))
  (gr_circle (center 201.93 61.214) (end 203.2 61.722) (layer Edge.Cuts) (width 0.05) (tstamp 60B91111))
  (gr_circle (center 201.93 77.724) (end 203.2 78.232) (layer Edge.Cuts) (width 0.05))
  (gr_text + (at 162.814 64.008) (layer F.SilkS)
    (effects (font (size 1.2 1.2) (thickness 0.2)))
  )
  (gr_text + (at 202.184 65.024) (layer F.SilkS)
    (effects (font (size 1.2 1.2) (thickness 0.2)) (justify mirror))
  )
  (gr_text 2021-07 (at 199.136 74.93 90) (layer F.SilkS)
    (effects (font (size 0.9 0.9) (thickness 0.1)))
  )
  (gr_text https://gitlab.com/monje/ultimateredheadtorch (at 181.864 78.232) (layer F.SilkS)
    (effects (font (size 0.9 0.9) (thickness 0.1)))
  )

  (segment (start 179.15 62.15) (end 179.15 61.976) (width 0.3) (layer F.Cu) (net 1))
  (segment (start 176.276 65.024) (end 179.15 62.15) (width 0.3) (layer F.Cu) (net 1))
  (segment (start 183.896 74.168) (end 182.372 75.692) (width 0.3) (layer B.Cu) (net 2))
  (segment (start 183.896 72.644) (end 183.896 74.168) (width 0.3) (layer B.Cu) (net 2))
  (segment (start 182.372 75.692) (end 183.243001 74.820999) (width 0.25) (layer B.Cu) (net 2))
  (segment (start 190.873999 77.604001) (end 193.294 75.184) (width 0.3) (layer B.Cu) (net 2))
  (segment (start 184.284001 77.604001) (end 190.873999 77.604001) (width 0.3) (layer B.Cu) (net 2))
  (segment (start 182.372 75.692) (end 184.284001 77.604001) (width 0.3) (layer B.Cu) (net 2))
  (segment (start 182.999999 60.825999) (end 184.15 61.976) (width 0.3) (layer B.Cu) (net 2))
  (segment (start 171.838001 60.825999) (end 182.999999 60.825999) (width 0.3) (layer B.Cu) (net 2))
  (segment (start 167.386 65.278) (end 171.838001 60.825999) (width 0.3) (layer B.Cu) (net 2))
  (segment (start 182.745999 63.380001) (end 184.15 61.976) (width 0.3) (layer B.Cu) (net 2))
  (segment (start 182.745999 71.493999) (end 182.745999 63.380001) (width 0.3) (layer B.Cu) (net 2))
  (segment (start 183.896 72.644) (end 182.745999 71.493999) (width 0.3) (layer B.Cu) (net 2))
  (segment (start 186.944 61.976) (end 187.452 62.484) (width 0.3) (layer B.Cu) (net 2))
  (segment (start 184.15 61.976) (end 186.944 61.976) (width 0.3) (layer B.Cu) (net 2))
  (segment (start 178.171999 74.892001) (end 177.372 75.692) (width 0.3) (layer B.Cu) (net 3))
  (segment (start 178.171999 69.459999) (end 178.171999 74.892001) (width 0.3) (layer B.Cu) (net 3))
  (segment (start 176.276 67.564) (end 178.171999 69.459999) (width 0.3) (layer B.Cu) (net 3))
  (segment (start 182.745999 71.254001) (end 181.809999 71.254001) (width 0.3) (layer F.Cu) (net 3))
  (segment (start 181.809999 71.254001) (end 177.372 75.692) (width 0.3) (layer F.Cu) (net 3))
  (segment (start 183.896 70.104) (end 182.745999 71.254001) (width 0.3) (layer F.Cu) (net 3))
  (segment (start 176.276 67.717002) (end 176.276 67.564) (width 0.25) (layer B.Cu) (net 3))
  (segment (start 176.276 67.762002) (end 176.276 67.564) (width 0.3) (layer B.Cu) (net 3))
  (segment (start 172.410002 71.628) (end 176.276 67.762002) (width 0.3) (layer B.Cu) (net 3))
  (segment (start 164.338 71.628) (end 172.410002 71.628) (width 0.3) (layer B.Cu) (net 3))
  (segment (start 165.862 74.168) (end 167.64 75.946) (width 0.3) (layer F.Cu) (net 4))
  (segment (start 164.338 74.168) (end 165.862 74.168) (width 0.3) (layer F.Cu) (net 4))
  (segment (start 173.99 68.072) (end 174.244 68.072) (width 0.3) (layer B.Cu) (net 5))
  (segment (start 173.736 68.072) (end 174.244 68.072) (width 0.3) (layer B.Cu) (net 5))
  (segment (start 174.244 68.072) (end 173.736 68.072) (width 0.3) (layer F.Cu) (net 5))
  (segment (start 176.276 70.104) (end 174.244 68.072) (width 0.3) (layer F.Cu) (net 5))
  (segment (start 173.482 68.326) (end 173.736 68.072) (width 0.25) (layer B.Cu) (net 5))
  (segment (start 173.736 65.278) (end 177.038 61.976) (width 0.3) (layer F.Cu) (net 5))
  (segment (start 173.736 68.072) (end 173.736 65.278) (width 0.3) (layer F.Cu) (net 5))
  (segment (start 173.482 68.326) (end 173.736 68.072) (width 0.3) (layer F.Cu) (net 5))
  (segment (start 167.64 68.326) (end 173.482 68.326) (width 0.3) (layer F.Cu) (net 5))
  (segment (start 170.688 75.692) (end 173.736 75.692) (width 0.3) (layer F.Cu) (net 6))
  (segment (start 176.276 72.644) (end 183.896 65.024) (width 0.3) (layer F.Cu) (net 7))
  (segment (start 187.724631 60.063999) (end 197.865999 60.063999) (width 0.3) (layer F.Cu) (net 7))
  (segment (start 183.896 63.89263) (end 187.724631 60.063999) (width 0.3) (layer F.Cu) (net 7))
  (segment (start 183.896 65.024) (end 183.896 63.89263) (width 0.3) (layer F.Cu) (net 7))
  (segment (start 164.846 64.008) (end 166.878 61.976) (width 0.3) (layer F.Cu) (net 7))
  (segment (start 164.846 65.278) (end 164.846 64.008) (width 0.3) (layer F.Cu) (net 7))
  (segment (start 165.695999 68.084001) (end 170.255998 72.644) (width 0.3) (layer F.Cu) (net 7))
  (segment (start 170.255998 72.644) (end 176.276 72.644) (width 0.3) (layer F.Cu) (net 7))
  (segment (start 165.695999 66.127999) (end 165.695999 68.084001) (width 0.3) (layer F.Cu) (net 7))
  (segment (start 164.846 65.278) (end 165.695999 66.127999) (width 0.3) (layer F.Cu) (net 7))
  (segment (start 197.865999 60.063999) (end 198.882 61.08) (width 0.3) (layer F.Cu) (net 7))
  (segment (start 198.882 63.754) (end 200.152 65.024) (width 0.3) (layer F.Cu) (net 7))
  (segment (start 198.882 61.08) (end 198.882 63.754) (width 0.3) (layer F.Cu) (net 7))
  (segment (start 169.741999 66.478001) (end 170.688 65.532) (width 0.3) (layer B.Cu) (net 8))
  (segment (start 166.947999 66.478001) (end 169.741999 66.478001) (width 0.3) (layer B.Cu) (net 8))
  (segment (start 164.338 69.088) (end 166.947999 66.478001) (width 0.3) (layer B.Cu) (net 8))
  (segment (start 196.85 64.262) (end 200.152 67.564) (width 0.3) (layer F.Cu) (net 9))
  (segment (start 196.85 61.214) (end 196.85 64.262) (width 0.3) (layer F.Cu) (net 9))
  (segment (start 188.722 74.676) (end 188.722 62.484) (width 0.3) (layer B.Cu) (net 10))
  (segment (start 186.944 76.454) (end 188.722 74.676) (width 0.3) (layer B.Cu) (net 10))
  (segment (start 194.564 76.234) (end 194.564 75.184) (width 0.3) (layer F.Cu) (net 11))
  (segment (start 194.344 76.454) (end 194.564 76.234) (width 0.3) (layer F.Cu) (net 11))
  (segment (start 190.246 76.454) (end 194.344 76.454) (width 0.3) (layer F.Cu) (net 11))
  (segment (start 185.674 67.564) (end 186.944 66.294) (width 0.3) (layer B.Cu) (net 12))
  (segment (start 183.896 67.564) (end 185.674 67.564) (width 0.3) (layer B.Cu) (net 12))
  (segment (start 186.944 66.294) (end 190.246 66.294) (width 0.3) (layer F.Cu) (net 12))
  (segment (start 196.85 69.342) (end 196.85 71.374) (width 0.3) (layer F.Cu) (net 13))
  (segment (start 189.992 62.484) (end 196.85 69.342) (width 0.3) (layer F.Cu) (net 13))
  (segment (start 195.834 73.66) (end 193.548 71.374) (width 0.3) (layer B.Cu) (net 14))
  (segment (start 195.834 75.184) (end 195.834 73.66) (width 0.3) (layer B.Cu) (net 14))
  (segment (start 193.548 63.5) (end 200.152 70.104) (width 0.3) (layer F.Cu) (net 15))
  (segment (start 193.548 61.214) (end 193.548 63.5) (width 0.3) (layer F.Cu) (net 15))

  (zone (net 2) (net_name Earth) (layer B.Cu) (tstamp 60E49602) (hatch edge 0.508)
    (connect_pads (clearance 0.508))
    (min_thickness 0.254)
    (fill yes (arc_segments 32) (thermal_gap 0.508) (thermal_bridge_width 0.508))
    (polygon
      (pts
        (xy 203.454 79.248) (xy 161.544 79.248) (xy 161.544 59.69) (xy 203.454 59.69)
      )
    )
    (filled_polygon
      (pts
        (xy 192.633241 60.099363) (xy 192.433363 60.299241) (xy 192.27632 60.534273) (xy 192.168147 60.795426) (xy 192.113 61.072665)
        (xy 192.113 61.355335) (xy 192.168147 61.632574) (xy 192.27632 61.893727) (xy 192.433363 62.128759) (xy 192.633241 62.328637)
        (xy 192.868273 62.48568) (xy 193.129426 62.593853) (xy 193.406665 62.649) (xy 193.689335 62.649) (xy 193.966574 62.593853)
        (xy 194.227727 62.48568) (xy 194.462759 62.328637) (xy 194.662637 62.128759) (xy 194.81968 61.893727) (xy 194.927853 61.632574)
        (xy 194.983 61.355335) (xy 194.983 61.072665) (xy 194.927853 60.795426) (xy 194.81968 60.534273) (xy 194.662637 60.299241)
        (xy 194.462759 60.099363) (xy 194.457726 60.096) (xy 195.940274 60.096) (xy 195.935241 60.099363) (xy 195.735363 60.299241)
        (xy 195.57832 60.534273) (xy 195.470147 60.795426) (xy 195.415 61.072665) (xy 195.415 61.355335) (xy 195.470147 61.632574)
        (xy 195.57832 61.893727) (xy 195.735363 62.128759) (xy 195.935241 62.328637) (xy 196.170273 62.48568) (xy 196.431426 62.593853)
        (xy 196.708665 62.649) (xy 196.991335 62.649) (xy 197.268574 62.593853) (xy 197.529727 62.48568) (xy 197.764759 62.328637)
        (xy 197.964637 62.128759) (xy 198.12168 61.893727) (xy 198.229853 61.632574) (xy 198.285 61.355335) (xy 198.285 61.072665)
        (xy 198.229853 60.795426) (xy 198.12168 60.534273) (xy 197.964637 60.299241) (xy 197.764759 60.099363) (xy 197.759726 60.096)
        (xy 200.225976 60.096) (xy 200.123973 60.248659) (xy 199.970347 60.619546) (xy 199.892029 61.013277) (xy 199.892029 61.414723)
        (xy 199.970347 61.808454) (xy 200.123973 62.179341) (xy 200.347004 62.513131) (xy 200.630869 62.796996) (xy 200.964659 63.020027)
        (xy 201.335546 63.173653) (xy 201.729277 63.251971) (xy 202.130723 63.251971) (xy 202.524454 63.173653) (xy 202.895341 63.020027)
        (xy 203.048001 62.918023) (xy 203.048 76.019976) (xy 202.895341 75.917973) (xy 202.524454 75.764347) (xy 202.130723 75.686029)
        (xy 201.729277 75.686029) (xy 201.335546 75.764347) (xy 200.964659 75.917973) (xy 200.630869 76.141004) (xy 200.347004 76.424869)
        (xy 200.123973 76.758659) (xy 199.970347 77.129546) (xy 199.892029 77.523277) (xy 199.892029 77.924723) (xy 199.970347 78.318454)
        (xy 200.123973 78.689341) (xy 200.225976 78.842) (xy 164.772024 78.842) (xy 164.874027 78.689341) (xy 165.027653 78.318454)
        (xy 165.105971 77.924723) (xy 165.105971 77.523277) (xy 165.027653 77.129546) (xy 164.874027 76.758659) (xy 164.650996 76.424869)
        (xy 164.367131 76.141004) (xy 164.033341 75.917973) (xy 163.662454 75.764347) (xy 163.268723 75.686029) (xy 162.867277 75.686029)
        (xy 162.473546 75.764347) (xy 162.102659 75.917973) (xy 161.95 76.019976) (xy 161.95 73.318) (xy 162.849928 73.318)
        (xy 162.849928 75.018) (xy 162.862188 75.142482) (xy 162.898498 75.26218) (xy 162.957463 75.372494) (xy 163.036815 75.469185)
        (xy 163.133506 75.548537) (xy 163.24382 75.607502) (xy 163.363518 75.643812) (xy 163.488 75.656072) (xy 165.188 75.656072)
        (xy 165.312482 75.643812) (xy 165.43218 75.607502) (xy 165.542494 75.548537) (xy 165.639185 75.469185) (xy 165.718537 75.372494)
        (xy 165.777502 75.26218) (xy 165.812744 75.146) (xy 166.201928 75.146) (xy 166.201928 76.746) (xy 166.214188 76.870482)
        (xy 166.250498 76.99018) (xy 166.309463 77.100494) (xy 166.388815 77.197185) (xy 166.485506 77.276537) (xy 166.59582 77.335502)
        (xy 166.715518 77.371812) (xy 166.84 77.384072) (xy 168.44 77.384072) (xy 168.564482 77.371812) (xy 168.68418 77.335502)
        (xy 168.794494 77.276537) (xy 168.891185 77.197185) (xy 168.970537 77.100494) (xy 169.029502 76.99018) (xy 169.065812 76.870482)
        (xy 169.078072 76.746) (xy 169.078072 75.550665) (xy 169.253 75.550665) (xy 169.253 75.833335) (xy 169.308147 76.110574)
        (xy 169.41632 76.371727) (xy 169.573363 76.606759) (xy 169.773241 76.806637) (xy 170.008273 76.96368) (xy 170.269426 77.071853)
        (xy 170.546665 77.127) (xy 170.829335 77.127) (xy 171.106574 77.071853) (xy 171.367727 76.96368) (xy 171.602759 76.806637)
        (xy 171.802637 76.606759) (xy 171.95968 76.371727) (xy 172.067853 76.110574) (xy 172.123 75.833335) (xy 172.123 75.550665)
        (xy 172.301 75.550665) (xy 172.301 75.833335) (xy 172.356147 76.110574) (xy 172.46432 76.371727) (xy 172.621363 76.606759)
        (xy 172.821241 76.806637) (xy 173.056273 76.96368) (xy 173.317426 77.071853) (xy 173.594665 77.127) (xy 173.877335 77.127)
        (xy 174.154574 77.071853) (xy 174.415727 76.96368) (xy 174.650759 76.806637) (xy 174.850637 76.606759) (xy 175.00768 76.371727)
        (xy 175.115853 76.110574) (xy 175.171 75.833335) (xy 175.171 75.550665) (xy 175.115853 75.273426) (xy 175.00768 75.012273)
        (xy 174.850637 74.777241) (xy 174.650759 74.577363) (xy 174.415727 74.42032) (xy 174.154574 74.312147) (xy 173.877335 74.257)
        (xy 173.594665 74.257) (xy 173.317426 74.312147) (xy 173.056273 74.42032) (xy 172.821241 74.577363) (xy 172.621363 74.777241)
        (xy 172.46432 75.012273) (xy 172.356147 75.273426) (xy 172.301 75.550665) (xy 172.123 75.550665) (xy 172.067853 75.273426)
        (xy 171.95968 75.012273) (xy 171.802637 74.777241) (xy 171.602759 74.577363) (xy 171.367727 74.42032) (xy 171.106574 74.312147)
        (xy 170.829335 74.257) (xy 170.546665 74.257) (xy 170.269426 74.312147) (xy 170.008273 74.42032) (xy 169.773241 74.577363)
        (xy 169.573363 74.777241) (xy 169.41632 75.012273) (xy 169.308147 75.273426) (xy 169.253 75.550665) (xy 169.078072 75.550665)
        (xy 169.078072 75.146) (xy 169.065812 75.021518) (xy 169.029502 74.90182) (xy 168.970537 74.791506) (xy 168.891185 74.694815)
        (xy 168.794494 74.615463) (xy 168.68418 74.556498) (xy 168.564482 74.520188) (xy 168.44 74.507928) (xy 166.84 74.507928)
        (xy 166.715518 74.520188) (xy 166.59582 74.556498) (xy 166.485506 74.615463) (xy 166.388815 74.694815) (xy 166.309463 74.791506)
        (xy 166.250498 74.90182) (xy 166.214188 75.021518) (xy 166.201928 75.146) (xy 165.812744 75.146) (xy 165.813812 75.142482)
        (xy 165.826072 75.018) (xy 165.826072 73.318) (xy 165.813812 73.193518) (xy 165.777502 73.07382) (xy 165.718537 72.963506)
        (xy 165.639185 72.866815) (xy 165.542494 72.787463) (xy 165.43218 72.728498) (xy 165.35962 72.706487) (xy 165.491475 72.574632)
        (xy 165.599474 72.413) (xy 172.371449 72.413) (xy 172.410002 72.416797) (xy 172.448555 72.413) (xy 172.448563 72.413)
        (xy 172.563889 72.401641) (xy 172.711862 72.356754) (xy 172.848235 72.283862) (xy 172.967766 72.185764) (xy 172.992349 72.15581)
        (xy 174.851257 70.296902) (xy 174.896147 70.522574) (xy 175.00432 70.783727) (xy 175.161363 71.018759) (xy 175.361241 71.218637)
        (xy 175.593759 71.374) (xy 175.361241 71.529363) (xy 175.161363 71.729241) (xy 175.00432 71.964273) (xy 174.896147 72.225426)
        (xy 174.841 72.502665) (xy 174.841 72.785335) (xy 174.896147 73.062574) (xy 175.00432 73.323727) (xy 175.161363 73.558759)
        (xy 175.361241 73.758637) (xy 175.596273 73.91568) (xy 175.857426 74.023853) (xy 176.134665 74.079) (xy 176.417335 74.079)
        (xy 176.694574 74.023853) (xy 176.955727 73.91568) (xy 177.190759 73.758637) (xy 177.387 73.562396) (xy 177.387 74.257)
        (xy 177.230665 74.257) (xy 176.953426 74.312147) (xy 176.692273 74.42032) (xy 176.457241 74.577363) (xy 176.257363 74.777241)
        (xy 176.10032 75.012273) (xy 175.992147 75.273426) (xy 175.937 75.550665) (xy 175.937 75.833335) (xy 175.992147 76.110574)
        (xy 176.10032 76.371727) (xy 176.257363 76.606759) (xy 176.457241 76.806637) (xy 176.692273 76.96368) (xy 176.953426 77.071853)
        (xy 177.230665 77.127) (xy 177.513335 77.127) (xy 177.790574 77.071853) (xy 178.051727 76.96368) (xy 178.286759 76.806637)
        (xy 178.408694 76.684702) (xy 181.558903 76.684702) (xy 181.630486 76.928671) (xy 181.885996 77.049571) (xy 182.160184 77.1183)
        (xy 182.442512 77.132217) (xy 182.72213 77.090787) (xy 182.988292 76.995603) (xy 183.113514 76.928671) (xy 183.185097 76.684702)
        (xy 182.372 75.871605) (xy 181.558903 76.684702) (xy 178.408694 76.684702) (xy 178.486637 76.606759) (xy 178.64368 76.371727)
        (xy 178.751853 76.110574) (xy 178.807 75.833335) (xy 178.807 75.762512) (xy 180.931783 75.762512) (xy 180.973213 76.04213)
        (xy 181.068397 76.308292) (xy 181.135329 76.433514) (xy 181.379298 76.505097) (xy 182.192395 75.692) (xy 182.551605 75.692)
        (xy 183.364702 76.505097) (xy 183.608671 76.433514) (xy 183.729571 76.178004) (xy 183.7983 75.903816) (xy 183.812217 75.621488)
        (xy 183.770787 75.34187) (xy 183.675603 75.075708) (xy 183.608671 74.950486) (xy 183.364702 74.878903) (xy 182.551605 75.692)
        (xy 182.192395 75.692) (xy 181.379298 74.878903) (xy 181.135329 74.950486) (xy 181.014429 75.205996) (xy 180.9457 75.480184)
        (xy 180.931783 75.762512) (xy 178.807 75.762512) (xy 178.807 75.550665) (xy 178.775777 75.393698) (xy 178.827861 75.330234)
        (xy 178.900753 75.193861) (xy 178.94564 75.045888) (xy 178.956999 74.930562) (xy 178.956999 74.930555) (xy 178.960796 74.892002)
        (xy 178.956999 74.853449) (xy 178.956999 74.699298) (xy 181.558903 74.699298) (xy 182.372 75.512395) (xy 183.185097 74.699298)
        (xy 183.113514 74.455329) (xy 182.858004 74.334429) (xy 182.583816 74.2657) (xy 182.301488 74.251783) (xy 182.02187 74.293213)
        (xy 181.755708 74.388397) (xy 181.630486 74.455329) (xy 181.558903 74.699298) (xy 178.956999 74.699298) (xy 178.956999 73.444)
        (xy 182.457928 73.444) (xy 182.470188 73.568482) (xy 182.506498 73.68818) (xy 182.565463 73.798494) (xy 182.644815 73.895185)
        (xy 182.741506 73.974537) (xy 182.85182 74.033502) (xy 182.971518 74.069812) (xy 183.096 74.082072) (xy 183.61025 74.079)
        (xy 183.769 73.92025) (xy 183.769 72.771) (xy 184.023 72.771) (xy 184.023 73.92025) (xy 184.18175 74.079)
        (xy 184.696 74.082072) (xy 184.820482 74.069812) (xy 184.94018 74.033502) (xy 185.050494 73.974537) (xy 185.147185 73.895185)
        (xy 185.226537 73.798494) (xy 185.285502 73.68818) (xy 185.321812 73.568482) (xy 185.334072 73.444) (xy 185.331 72.92975)
        (xy 185.17225 72.771) (xy 184.023 72.771) (xy 183.769 72.771) (xy 182.61975 72.771) (xy 182.461 72.92975)
        (xy 182.457928 73.444) (xy 178.956999 73.444) (xy 178.956999 71.844) (xy 182.457928 71.844) (xy 182.461 72.35825)
        (xy 182.61975 72.517) (xy 183.769 72.517) (xy 183.769 72.497) (xy 184.023 72.497) (xy 184.023 72.517)
        (xy 185.17225 72.517) (xy 185.331 72.35825) (xy 185.334072 71.844) (xy 185.321812 71.719518) (xy 185.285502 71.59982)
        (xy 185.226537 71.489506) (xy 185.147185 71.392815) (xy 185.050494 71.313463) (xy 184.94018 71.254498) (xy 184.820482 71.218188)
        (xy 184.812039 71.217357) (xy 185.010637 71.018759) (xy 185.16768 70.783727) (xy 185.275853 70.522574) (xy 185.331 70.245335)
        (xy 185.331 69.962665) (xy 185.275853 69.685426) (xy 185.16768 69.424273) (xy 185.010637 69.189241) (xy 184.810759 68.989363)
        (xy 184.578241 68.834) (xy 184.810759 68.678637) (xy 185.010637 68.478759) (xy 185.097339 68.349) (xy 185.635447 68.349)
        (xy 185.674 68.352797) (xy 185.712553 68.349) (xy 185.712561 68.349) (xy 185.827887 68.337641) (xy 185.97586 68.292754)
        (xy 186.112233 68.219862) (xy 186.231764 68.121764) (xy 186.256347 68.09181) (xy 186.649604 67.698554) (xy 186.802665 67.729)
        (xy 187.085335 67.729) (xy 187.362574 67.673853) (xy 187.623727 67.56568) (xy 187.858759 67.408637) (xy 187.937001 67.330395)
        (xy 187.937 74.350843) (xy 187.238397 75.049446) (xy 187.085335 75.019) (xy 186.802665 75.019) (xy 186.525426 75.074147)
        (xy 186.264273 75.18232) (xy 186.029241 75.339363) (xy 185.829363 75.539241) (xy 185.67232 75.774273) (xy 185.564147 76.035426)
        (xy 185.509 76.312665) (xy 185.509 76.595335) (xy 185.564147 76.872574) (xy 185.67232 77.133727) (xy 185.829363 77.368759)
        (xy 186.029241 77.568637) (xy 186.264273 77.72568) (xy 186.525426 77.833853) (xy 186.802665 77.889) (xy 187.085335 77.889)
        (xy 187.362574 77.833853) (xy 187.623727 77.72568) (xy 187.858759 77.568637) (xy 188.058637 77.368759) (xy 188.21568 77.133727)
        (xy 188.323853 76.872574) (xy 188.379 76.595335) (xy 188.379 76.312665) (xy 188.811 76.312665) (xy 188.811 76.595335)
        (xy 188.866147 76.872574) (xy 188.97432 77.133727) (xy 189.131363 77.368759) (xy 189.331241 77.568637) (xy 189.566273 77.72568)
        (xy 189.827426 77.833853) (xy 190.104665 77.889) (xy 190.387335 77.889) (xy 190.664574 77.833853) (xy 190.925727 77.72568)
        (xy 191.160759 77.568637) (xy 191.360637 77.368759) (xy 191.51768 77.133727) (xy 191.625853 76.872574) (xy 191.681 76.595335)
        (xy 191.681 76.312665) (xy 191.625853 76.035426) (xy 191.583842 75.934) (xy 192.130928 75.934) (xy 192.143188 76.058482)
        (xy 192.179498 76.17818) (xy 192.238463 76.288494) (xy 192.317815 76.385185) (xy 192.414506 76.464537) (xy 192.52482 76.523502)
        (xy 192.644518 76.559812) (xy 192.769 76.572072) (xy 193.00825 76.569) (xy 193.167 76.41025) (xy 193.167 75.311)
        (xy 192.29275 75.311) (xy 192.134 75.46975) (xy 192.130928 75.934) (xy 191.583842 75.934) (xy 191.51768 75.774273)
        (xy 191.360637 75.539241) (xy 191.160759 75.339363) (xy 190.925727 75.18232) (xy 190.664574 75.074147) (xy 190.387335 75.019)
        (xy 190.104665 75.019) (xy 189.827426 75.074147) (xy 189.566273 75.18232) (xy 189.331241 75.339363) (xy 189.131363 75.539241)
        (xy 188.97432 75.774273) (xy 188.866147 76.035426) (xy 188.811 76.312665) (xy 188.379 76.312665) (xy 188.348554 76.159603)
        (xy 189.249811 75.258346) (xy 189.279764 75.233764) (xy 189.377862 75.114233) (xy 189.450754 74.97786) (xy 189.465102 74.930562)
        (xy 189.495642 74.829887) (xy 189.50468 74.738115) (xy 189.507 74.714561) (xy 189.507 74.714556) (xy 189.510797 74.676)
        (xy 189.507 74.637444) (xy 189.507 74.434) (xy 192.130928 74.434) (xy 192.134 74.89825) (xy 192.29275 75.057)
        (xy 193.167 75.057) (xy 193.167 73.95775) (xy 193.00825 73.799) (xy 192.769 73.795928) (xy 192.644518 73.808188)
        (xy 192.52482 73.844498) (xy 192.414506 73.903463) (xy 192.317815 73.982815) (xy 192.238463 74.079506) (xy 192.179498 74.18982)
        (xy 192.143188 74.309518) (xy 192.130928 74.434) (xy 189.507 74.434) (xy 189.507 71.232665) (xy 192.113 71.232665)
        (xy 192.113 71.515335) (xy 192.168147 71.792574) (xy 192.27632 72.053727) (xy 192.433363 72.288759) (xy 192.633241 72.488637)
        (xy 192.868273 72.64568) (xy 193.129426 72.753853) (xy 193.406665 72.809) (xy 193.689335 72.809) (xy 193.842396 72.778554)
        (xy 194.918045 73.854203) (xy 194.791399 73.815785) (xy 194.564 73.793388) (xy 194.3366 73.815785) (xy 194.127902 73.879093)
        (xy 194.06318 73.844498) (xy 193.943482 73.808188) (xy 193.819 73.795928) (xy 193.57975 73.799) (xy 193.421 73.95775)
        (xy 193.421 74.730892) (xy 193.420785 74.731601) (xy 193.404 74.902022) (xy 193.404 75.465979) (xy 193.420785 75.6364)
        (xy 193.421 75.637109) (xy 193.421 76.41025) (xy 193.57975 76.569) (xy 193.819 76.572072) (xy 193.943482 76.559812)
        (xy 194.06318 76.523502) (xy 194.127902 76.488907) (xy 194.336601 76.552215) (xy 194.564 76.574612) (xy 194.7914 76.552215)
        (xy 195.01006 76.485885) (xy 195.199001 76.384894) (xy 195.387941 76.485885) (xy 195.606601 76.552215) (xy 195.834 76.574612)
        (xy 196.0614 76.552215) (xy 196.28006 76.485885) (xy 196.481579 76.378171) (xy 196.658212 76.233212) (xy 196.803171 76.056579)
        (xy 196.910885 75.855059) (xy 196.977215 75.636399) (xy 196.994 75.465978) (xy 196.994 74.902021) (xy 196.977215 74.7316)
        (xy 196.910885 74.51294) (xy 196.803171 74.311421) (xy 196.658212 74.134788) (xy 196.619 74.102608) (xy 196.619 73.698552)
        (xy 196.622797 73.659999) (xy 196.619 73.621446) (xy 196.619 73.621439) (xy 196.607641 73.506113) (xy 196.562754 73.35814)
        (xy 196.489862 73.221767) (xy 196.391764 73.102236) (xy 196.361816 73.077658) (xy 194.952554 71.668396) (xy 194.983 71.515335)
        (xy 194.983 71.232665) (xy 195.415 71.232665) (xy 195.415 71.515335) (xy 195.470147 71.792574) (xy 195.57832 72.053727)
        (xy 195.735363 72.288759) (xy 195.935241 72.488637) (xy 196.170273 72.64568) (xy 196.431426 72.753853) (xy 196.708665 72.809)
        (xy 196.991335 72.809) (xy 197.268574 72.753853) (xy 197.529727 72.64568) (xy 197.764759 72.488637) (xy 197.964637 72.288759)
        (xy 198.12168 72.053727) (xy 198.229853 71.792574) (xy 198.285 71.515335) (xy 198.285 71.232665) (xy 198.229853 70.955426)
        (xy 198.12168 70.694273) (xy 197.964637 70.459241) (xy 197.764759 70.259363) (xy 197.529727 70.10232) (xy 197.268574 69.994147)
        (xy 196.991335 69.939) (xy 196.708665 69.939) (xy 196.431426 69.994147) (xy 196.170273 70.10232) (xy 195.935241 70.259363)
        (xy 195.735363 70.459241) (xy 195.57832 70.694273) (xy 195.470147 70.955426) (xy 195.415 71.232665) (xy 194.983 71.232665)
        (xy 194.927853 70.955426) (xy 194.81968 70.694273) (xy 194.662637 70.459241) (xy 194.462759 70.259363) (xy 194.227727 70.10232)
        (xy 193.966574 69.994147) (xy 193.689335 69.939) (xy 193.406665 69.939) (xy 193.129426 69.994147) (xy 192.868273 70.10232)
        (xy 192.633241 70.259363) (xy 192.433363 70.459241) (xy 192.27632 70.694273) (xy 192.168147 70.955426) (xy 192.113 71.232665)
        (xy 189.507 71.232665) (xy 189.507 67.526075) (xy 189.566273 67.56568) (xy 189.827426 67.673853) (xy 190.104665 67.729)
        (xy 190.387335 67.729) (xy 190.664574 67.673853) (xy 190.925727 67.56568) (xy 191.160759 67.408637) (xy 191.360637 67.208759)
        (xy 191.51768 66.973727) (xy 191.625853 66.712574) (xy 191.681 66.435335) (xy 191.681 66.152665) (xy 191.625853 65.875426)
        (xy 191.51768 65.614273) (xy 191.360637 65.379241) (xy 191.160759 65.179363) (xy 190.925727 65.02232) (xy 190.664574 64.914147)
        (xy 190.387335 64.859) (xy 190.104665 64.859) (xy 189.827426 64.914147) (xy 189.566273 65.02232) (xy 189.507 65.061925)
        (xy 189.507 64.174) (xy 198.663928 64.174) (xy 198.663928 65.874) (xy 198.676188 65.998482) (xy 198.712498 66.11818)
        (xy 198.771463 66.228494) (xy 198.850815 66.325185) (xy 198.947506 66.404537) (xy 199.05782 66.463502) (xy 199.13038 66.485513)
        (xy 198.998525 66.617368) (xy 198.83601 66.860589) (xy 198.724068 67.130842) (xy 198.667 67.41774) (xy 198.667 67.71026)
        (xy 198.724068 67.997158) (xy 198.83601 68.267411) (xy 198.998525 68.510632) (xy 199.205368 68.717475) (xy 199.37976 68.834)
        (xy 199.205368 68.950525) (xy 198.998525 69.157368) (xy 198.83601 69.400589) (xy 198.724068 69.670842) (xy 198.667 69.95774)
        (xy 198.667 70.25026) (xy 198.724068 70.537158) (xy 198.83601 70.807411) (xy 198.998525 71.050632) (xy 199.205368 71.257475)
        (xy 199.448589 71.41999) (xy 199.718842 71.531932) (xy 200.00574 71.589) (xy 200.29826 71.589) (xy 200.585158 71.531932)
        (xy 200.855411 71.41999) (xy 201.098632 71.257475) (xy 201.305475 71.050632) (xy 201.46799 70.807411) (xy 201.579932 70.537158)
        (xy 201.637 70.25026) (xy 201.637 69.95774) (xy 201.579932 69.670842) (xy 201.46799 69.400589) (xy 201.305475 69.157368)
        (xy 201.098632 68.950525) (xy 200.92424 68.834) (xy 201.098632 68.717475) (xy 201.305475 68.510632) (xy 201.46799 68.267411)
        (xy 201.579932 67.997158) (xy 201.637 67.71026) (xy 201.637 67.41774) (xy 201.579932 67.130842) (xy 201.46799 66.860589)
        (xy 201.305475 66.617368) (xy 201.17362 66.485513) (xy 201.24618 66.463502) (xy 201.356494 66.404537) (xy 201.453185 66.325185)
        (xy 201.532537 66.228494) (xy 201.591502 66.11818) (xy 201.627812 65.998482) (xy 201.640072 65.874) (xy 201.640072 64.174)
        (xy 201.627812 64.049518) (xy 201.591502 63.92982) (xy 201.532537 63.819506) (xy 201.453185 63.722815) (xy 201.356494 63.643463)
        (xy 201.24618 63.584498) (xy 201.126482 63.548188) (xy 201.002 63.535928) (xy 199.302 63.535928) (xy 199.177518 63.548188)
        (xy 199.05782 63.584498) (xy 198.947506 63.643463) (xy 198.850815 63.722815) (xy 198.771463 63.819506) (xy 198.712498 63.92982)
        (xy 198.676188 64.049518) (xy 198.663928 64.174) (xy 189.507 64.174) (xy 189.507 63.765071) (xy 189.545941 63.785885)
        (xy 189.764601 63.852215) (xy 189.992 63.874612) (xy 190.2194 63.852215) (xy 190.43806 63.785885) (xy 190.639579 63.678171)
        (xy 190.816212 63.533212) (xy 190.961171 63.356579) (xy 191.068885 63.155059) (xy 191.135215 62.936399) (xy 191.152 62.765978)
        (xy 191.152 62.202021) (xy 191.135215 62.0316) (xy 191.068885 61.81294) (xy 190.961171 61.611421) (xy 190.816212 61.434788)
        (xy 190.639578 61.289829) (xy 190.438059 61.182115) (xy 190.219399 61.115785) (xy 189.992 61.093388) (xy 189.7646 61.115785)
        (xy 189.54594 61.182115) (xy 189.357 61.283106) (xy 189.168059 61.182115) (xy 188.949399 61.115785) (xy 188.722 61.093388)
        (xy 188.4946 61.115785) (xy 188.285902 61.179093) (xy 188.22118 61.144498) (xy 188.101482 61.108188) (xy 187.977 61.095928)
        (xy 187.73775 61.099) (xy 187.579 61.25775) (xy 187.579 62.030892) (xy 187.578785 62.031601) (xy 187.562 62.202022)
        (xy 187.562 62.765979) (xy 187.578785 62.9364) (xy 187.579 62.937109) (xy 187.579 63.71025) (xy 187.73775 63.869)
        (xy 187.937001 63.871558) (xy 187.937001 65.257605) (xy 187.858759 65.179363) (xy 187.623727 65.02232) (xy 187.362574 64.914147)
        (xy 187.085335 64.859) (xy 186.802665 64.859) (xy 186.525426 64.914147) (xy 186.264273 65.02232) (xy 186.029241 65.179363)
        (xy 185.829363 65.379241) (xy 185.67232 65.614273) (xy 185.564147 65.875426) (xy 185.509 66.152665) (xy 185.509 66.435335)
        (xy 185.539446 66.588396) (xy 185.348843 66.779) (xy 185.097339 66.779) (xy 185.010637 66.649241) (xy 184.810759 66.449363)
        (xy 184.578241 66.294) (xy 184.810759 66.138637) (xy 185.010637 65.938759) (xy 185.16768 65.703727) (xy 185.275853 65.442574)
        (xy 185.331 65.165335) (xy 185.331 64.882665) (xy 185.275853 64.605426) (xy 185.16768 64.344273) (xy 185.010637 64.109241)
        (xy 184.810759 63.909363) (xy 184.575727 63.75232) (xy 184.314574 63.644147) (xy 184.037335 63.589) (xy 183.754665 63.589)
        (xy 183.477426 63.644147) (xy 183.216273 63.75232) (xy 182.981241 63.909363) (xy 182.781363 64.109241) (xy 182.62432 64.344273)
        (xy 182.516147 64.605426) (xy 182.461 64.882665) (xy 182.461 65.165335) (xy 182.516147 65.442574) (xy 182.62432 65.703727)
        (xy 182.781363 65.938759) (xy 182.981241 66.138637) (xy 183.213759 66.294) (xy 182.981241 66.449363) (xy 182.781363 66.649241)
        (xy 182.62432 66.884273) (xy 182.516147 67.145426) (xy 182.461 67.422665) (xy 182.461 67.705335) (xy 182.516147 67.982574)
        (xy 182.62432 68.243727) (xy 182.781363 68.478759) (xy 182.981241 68.678637) (xy 183.213759 68.834) (xy 182.981241 68.989363)
        (xy 182.781363 69.189241) (xy 182.62432 69.424273) (xy 182.516147 69.685426) (xy 182.461 69.962665) (xy 182.461 70.245335)
        (xy 182.516147 70.522574) (xy 182.62432 70.783727) (xy 182.781363 71.018759) (xy 182.979961 71.217357) (xy 182.971518 71.218188)
        (xy 182.85182 71.254498) (xy 182.741506 71.313463) (xy 182.644815 71.392815) (xy 182.565463 71.489506) (xy 182.506498 71.59982)
        (xy 182.470188 71.719518) (xy 182.457928 71.844) (xy 178.956999 71.844) (xy 178.956999 69.498555) (xy 178.960796 69.459999)
        (xy 178.956999 69.421439) (xy 178.956999 69.421438) (xy 178.947322 69.323185) (xy 178.945641 69.306112) (xy 178.900753 69.158139)
        (xy 178.900341 69.157368) (xy 178.827861 69.021766) (xy 178.729763 68.902235) (xy 178.69981 68.877653) (xy 177.680554 67.858397)
        (xy 177.711 67.705335) (xy 177.711 67.422665) (xy 177.655853 67.145426) (xy 177.54768 66.884273) (xy 177.390637 66.649241)
        (xy 177.190759 66.449363) (xy 176.958241 66.294) (xy 177.190759 66.138637) (xy 177.390637 65.938759) (xy 177.54768 65.703727)
        (xy 177.655853 65.442574) (xy 177.711 65.165335) (xy 177.711 64.882665) (xy 177.655853 64.605426) (xy 177.54768 64.344273)
        (xy 177.390637 64.109241) (xy 177.190759 63.909363) (xy 176.955727 63.75232) (xy 176.694574 63.644147) (xy 176.417335 63.589)
        (xy 176.134665 63.589) (xy 175.857426 63.644147) (xy 175.596273 63.75232) (xy 175.361241 63.909363) (xy 175.161363 64.109241)
        (xy 175.00432 64.344273) (xy 174.896147 64.605426) (xy 174.841 64.882665) (xy 174.841 65.165335) (xy 174.896147 65.442574)
        (xy 175.00432 65.703727) (xy 175.161363 65.938759) (xy 175.361241 66.138637) (xy 175.593759 66.294) (xy 175.361241 66.449363)
        (xy 175.161363 66.649241) (xy 175.020002 66.860803) (xy 174.987185 66.820815) (xy 174.890494 66.741463) (xy 174.78018 66.682498)
        (xy 174.660482 66.646188) (xy 174.536 66.633928) (xy 172.936 66.633928) (xy 172.811518 66.646188) (xy 172.69182 66.682498)
        (xy 172.581506 66.741463) (xy 172.484815 66.820815) (xy 172.405463 66.917506) (xy 172.346498 67.02782) (xy 172.310188 67.147518)
        (xy 172.297928 67.272) (xy 172.297928 68.872) (xy 172.310188 68.996482) (xy 172.346498 69.11618) (xy 172.405463 69.226494)
        (xy 172.484815 69.323185) (xy 172.581506 69.402537) (xy 172.69182 69.461502) (xy 172.811518 69.497812) (xy 172.936 69.510072)
        (xy 173.417773 69.510072) (xy 172.084845 70.843) (xy 165.599474 70.843) (xy 165.491475 70.681368) (xy 165.284632 70.474525)
        (xy 165.11024 70.358) (xy 165.284632 70.241475) (xy 165.491475 70.034632) (xy 165.65399 69.791411) (xy 165.765932 69.521158)
        (xy 165.823 69.23426) (xy 165.823 68.94174) (xy 165.785075 68.751082) (xy 166.205 68.331158) (xy 166.205 68.467335)
        (xy 166.260147 68.744574) (xy 166.36832 69.005727) (xy 166.525363 69.240759) (xy 166.725241 69.440637) (xy 166.960273 69.59768)
        (xy 167.221426 69.705853) (xy 167.498665 69.761) (xy 167.781335 69.761) (xy 168.058574 69.705853) (xy 168.319727 69.59768)
        (xy 168.554759 69.440637) (xy 168.754637 69.240759) (xy 168.91168 69.005727) (xy 169.019853 68.744574) (xy 169.075 68.467335)
        (xy 169.075 68.184665) (xy 169.019853 67.907426) (xy 168.91168 67.646273) (xy 168.754637 67.411241) (xy 168.606397 67.263001)
        (xy 169.703446 67.263001) (xy 169.741999 67.266798) (xy 169.780552 67.263001) (xy 169.78056 67.263001) (xy 169.895886 67.251642)
        (xy 170.043859 67.206755) (xy 170.180232 67.133863) (xy 170.299763 67.035765) (xy 170.324346 67.005811) (xy 170.393603 66.936554)
        (xy 170.546665 66.967) (xy 170.829335 66.967) (xy 171.106574 66.911853) (xy 171.367727 66.80368) (xy 171.602759 66.646637)
        (xy 171.802637 66.446759) (xy 171.95968 66.211727) (xy 172.067853 65.950574) (xy 172.123 65.673335) (xy 172.123 65.390665)
        (xy 172.067853 65.113426) (xy 171.95968 64.852273) (xy 171.802637 64.617241) (xy 171.602759 64.417363) (xy 171.367727 64.26032)
        (xy 171.106574 64.152147) (xy 170.829335 64.097) (xy 170.546665 64.097) (xy 170.269426 64.152147) (xy 170.008273 64.26032)
        (xy 169.773241 64.417363) (xy 169.573363 64.617241) (xy 169.41632 64.852273) (xy 169.308147 65.113426) (xy 169.253 65.390665)
        (xy 169.253 65.673335) (xy 169.256912 65.693001) (xy 168.871704 65.693001) (xy 168.871 65.56375) (xy 168.71225 65.405)
        (xy 167.513 65.405) (xy 167.513 65.425) (xy 167.259 65.425) (xy 167.259 65.405) (xy 167.239 65.405)
        (xy 167.239 65.151) (xy 167.259 65.151) (xy 167.259 63.95175) (xy 167.513 63.95175) (xy 167.513 65.151)
        (xy 168.71225 65.151) (xy 168.871 64.99225) (xy 168.874072 64.428) (xy 168.861812 64.303518) (xy 168.825502 64.18382)
        (xy 168.766537 64.073506) (xy 168.687185 63.976815) (xy 168.590494 63.897463) (xy 168.48018 63.838498) (xy 168.360482 63.802188)
        (xy 168.236 63.789928) (xy 167.67175 63.793) (xy 167.513 63.95175) (xy 167.259 63.95175) (xy 167.10025 63.793)
        (xy 166.536 63.789928) (xy 166.411518 63.802188) (xy 166.29182 63.838498) (xy 166.181506 63.897463) (xy 166.084815 63.976815)
        (xy 166.005463 64.073506) (xy 165.946498 64.18382) (xy 165.924487 64.25638) (xy 165.792632 64.124525) (xy 165.549411 63.96201)
        (xy 165.279158 63.850068) (xy 164.99226 63.793) (xy 164.69974 63.793) (xy 164.412842 63.850068) (xy 164.142589 63.96201)
        (xy 163.899368 64.124525) (xy 163.692525 64.331368) (xy 163.53001 64.574589) (xy 163.418068 64.844842) (xy 163.361 65.13174)
        (xy 163.361 65.42426) (xy 163.418068 65.711158) (xy 163.53001 65.981411) (xy 163.692525 66.224632) (xy 163.899368 66.431475)
        (xy 164.142589 66.59399) (xy 164.412842 66.705932) (xy 164.69974 66.763) (xy 164.99226 66.763) (xy 165.279158 66.705932)
        (xy 165.549411 66.59399) (xy 165.792632 66.431475) (xy 165.924487 66.29962) (xy 165.945838 66.370004) (xy 164.674918 67.640925)
        (xy 164.48426 67.603) (xy 164.19174 67.603) (xy 163.904842 67.660068) (xy 163.634589 67.77201) (xy 163.391368 67.934525)
        (xy 163.184525 68.141368) (xy 163.02201 68.384589) (xy 162.910068 68.654842) (xy 162.853 68.94174) (xy 162.853 69.23426)
        (xy 162.910068 69.521158) (xy 163.02201 69.791411) (xy 163.184525 70.034632) (xy 163.391368 70.241475) (xy 163.56576 70.358)
        (xy 163.391368 70.474525) (xy 163.184525 70.681368) (xy 163.02201 70.924589) (xy 162.910068 71.194842) (xy 162.853 71.48174)
        (xy 162.853 71.77426) (xy 162.910068 72.061158) (xy 163.02201 72.331411) (xy 163.184525 72.574632) (xy 163.31638 72.706487)
        (xy 163.24382 72.728498) (xy 163.133506 72.787463) (xy 163.036815 72.866815) (xy 162.957463 72.963506) (xy 162.898498 73.07382)
        (xy 162.862188 73.193518) (xy 162.849928 73.318) (xy 161.95 73.318) (xy 161.95 62.918024) (xy 162.102659 63.020027)
        (xy 162.473546 63.173653) (xy 162.867277 63.251971) (xy 163.268723 63.251971) (xy 163.662454 63.173653) (xy 164.033341 63.020027)
        (xy 164.367131 62.796996) (xy 164.650996 62.513131) (xy 164.874027 62.179341) (xy 165.016796 61.834665) (xy 165.443 61.834665)
        (xy 165.443 62.117335) (xy 165.498147 62.394574) (xy 165.60632 62.655727) (xy 165.763363 62.890759) (xy 165.963241 63.090637)
        (xy 166.198273 63.24768) (xy 166.459426 63.355853) (xy 166.736665 63.411) (xy 167.019335 63.411) (xy 167.296574 63.355853)
        (xy 167.557727 63.24768) (xy 167.792759 63.090637) (xy 167.992637 62.890759) (xy 168.14968 62.655727) (xy 168.257853 62.394574)
        (xy 168.313 62.117335) (xy 168.313 61.834665) (xy 175.603 61.834665) (xy 175.603 62.117335) (xy 175.658147 62.394574)
        (xy 175.76632 62.655727) (xy 175.923363 62.890759) (xy 176.123241 63.090637) (xy 176.358273 63.24768) (xy 176.619426 63.355853)
        (xy 176.896665 63.411) (xy 177.179335 63.411) (xy 177.456574 63.355853) (xy 177.717727 63.24768) (xy 177.952759 63.090637)
        (xy 178.094 62.949396) (xy 178.235241 63.090637) (xy 178.470273 63.24768) (xy 178.731426 63.355853) (xy 179.008665 63.411)
        (xy 179.291335 63.411) (xy 179.568574 63.355853) (xy 179.829727 63.24768) (xy 180.064759 63.090637) (xy 180.186694 62.968702)
        (xy 183.336903 62.968702) (xy 183.408486 63.212671) (xy 183.663996 63.333571) (xy 183.938184 63.4023) (xy 184.220512 63.416217)
        (xy 184.50013 63.374787) (xy 184.766292 63.279603) (xy 184.851609 63.234) (xy 186.288928 63.234) (xy 186.301188 63.358482)
        (xy 186.337498 63.47818) (xy 186.396463 63.588494) (xy 186.475815 63.685185) (xy 186.572506 63.764537) (xy 186.68282 63.823502)
        (xy 186.802518 63.859812) (xy 186.927 63.872072) (xy 187.16625 63.869) (xy 187.325 63.71025) (xy 187.325 62.611)
        (xy 186.45075 62.611) (xy 186.292 62.76975) (xy 186.288928 63.234) (xy 184.851609 63.234) (xy 184.891514 63.212671)
        (xy 184.963097 62.968702) (xy 184.15 62.155605) (xy 183.336903 62.968702) (xy 180.186694 62.968702) (xy 180.264637 62.890759)
        (xy 180.42168 62.655727) (xy 180.529853 62.394574) (xy 180.585 62.117335) (xy 180.585 62.046512) (xy 182.709783 62.046512)
        (xy 182.751213 62.32613) (xy 182.846397 62.592292) (xy 182.913329 62.717514) (xy 183.157298 62.789097) (xy 183.970395 61.976)
        (xy 184.329605 61.976) (xy 185.142702 62.789097) (xy 185.386671 62.717514) (xy 185.507571 62.462004) (xy 185.5763 62.187816)
        (xy 185.590217 61.905488) (xy 185.564809 61.734) (xy 186.288928 61.734) (xy 186.292 62.19825) (xy 186.45075 62.357)
        (xy 187.325 62.357) (xy 187.325 61.25775) (xy 187.16625 61.099) (xy 186.927 61.095928) (xy 186.802518 61.108188)
        (xy 186.68282 61.144498) (xy 186.572506 61.203463) (xy 186.475815 61.282815) (xy 186.396463 61.379506) (xy 186.337498 61.48982)
        (xy 186.301188 61.609518) (xy 186.288928 61.734) (xy 185.564809 61.734) (xy 185.548787 61.62587) (xy 185.453603 61.359708)
        (xy 185.386671 61.234486) (xy 185.142702 61.162903) (xy 184.329605 61.976) (xy 183.970395 61.976) (xy 183.157298 61.162903)
        (xy 182.913329 61.234486) (xy 182.792429 61.489996) (xy 182.7237 61.764184) (xy 182.709783 62.046512) (xy 180.585 62.046512)
        (xy 180.585 61.834665) (xy 180.529853 61.557426) (xy 180.42168 61.296273) (xy 180.264637 61.061241) (xy 180.186694 60.983298)
        (xy 183.336903 60.983298) (xy 184.15 61.796395) (xy 184.963097 60.983298) (xy 184.891514 60.739329) (xy 184.636004 60.618429)
        (xy 184.361816 60.5497) (xy 184.079488 60.535783) (xy 183.79987 60.577213) (xy 183.533708 60.672397) (xy 183.408486 60.739329)
        (xy 183.336903 60.983298) (xy 180.186694 60.983298) (xy 180.064759 60.861363) (xy 179.829727 60.70432) (xy 179.568574 60.596147)
        (xy 179.291335 60.541) (xy 179.008665 60.541) (xy 178.731426 60.596147) (xy 178.470273 60.70432) (xy 178.235241 60.861363)
        (xy 178.094 61.002604) (xy 177.952759 60.861363) (xy 177.717727 60.70432) (xy 177.456574 60.596147) (xy 177.179335 60.541)
        (xy 176.896665 60.541) (xy 176.619426 60.596147) (xy 176.358273 60.70432) (xy 176.123241 60.861363) (xy 175.923363 61.061241)
        (xy 175.76632 61.296273) (xy 175.658147 61.557426) (xy 175.603 61.834665) (xy 168.313 61.834665) (xy 168.257853 61.557426)
        (xy 168.14968 61.296273) (xy 167.992637 61.061241) (xy 167.792759 60.861363) (xy 167.557727 60.70432) (xy 167.296574 60.596147)
        (xy 167.019335 60.541) (xy 166.736665 60.541) (xy 166.459426 60.596147) (xy 166.198273 60.70432) (xy 165.963241 60.861363)
        (xy 165.763363 61.061241) (xy 165.60632 61.296273) (xy 165.498147 61.557426) (xy 165.443 61.834665) (xy 165.016796 61.834665)
        (xy 165.027653 61.808454) (xy 165.105971 61.414723) (xy 165.105971 61.013277) (xy 165.027653 60.619546) (xy 164.874027 60.248659)
        (xy 164.772024 60.096) (xy 192.638274 60.096)
      )
    )
  )
)
